{"isSuccess":true,"message":"Success","data":{"successMessage":"Records retrieved successfully","errorMessage":null,"responseCode":200,"total":827,"totalPages":83,"rowsPerPage":10,"pageItemsCount":10,"pageNumber":1,"queryString":"","list":[[{"applicationID":"445e78b4-eb6e-4f72-b4c5-19fa8f54bbe9","productID":"c83fa035-bb29-4ef5-91c6-da2b7a317767","categoryName":"Fixed Deposit Account","customerID":"e57f3da1-3608-4f32-bcd3-3851fc4d6162","dateOfApplication":"2024-03-11T00:00:00","dateCreated":"2024-03-11T12:12:20.977","firstName":"Richard","lastName":"Adibe","email":"Margarita_Schaden@hotmail.com","phone":"+2348066923517","gender":"male","providerName":"KoboGo","providerID":"8c57cea3-940a-4369-9b82-b145b29c8de0","productName":"Knight King","providerLogoFileSystemId":"c4da296a-5c22-4c9c-aea9-61cf02de995b","amount":"459.00","interestRate":"12","duration":"6","categoryUrlSlug":"fixed-deposit-account","applicationStatus":"Savings Pending","applicationNumber":"24/FP-0076/NC/0064","allApplicationId":"762a3f44-e8f7-41ac-acd6-14891e69b76d","commonPersonalDetailID":"92ddf579-8fc4-4edb-a1c2-905b561c2d6e","customerIdentityId":null,"concurrencyHash":"4BAA1BB2F6385D951114BEC822AC216982FE9016BA8C7073DC9D96FC37D13B1D","dataSource":"Common Applications","commonBankAccountDetailSourceId":"33afea48-7476-471b-a05d-f42b9dbbe664","commonBankAccountDetailIncomingId":"33afea48-7476-471b-a05d-f42b9dbbe664","commonAddressDetailId":"4bca1c48-ef7a-4a55-ad23-5175fe03ae2d","nextOfKinDetailId":"61f01a37-0d36-4ce3-ba09-8ec0980fbb4f","campaignID":"","productType":"Fixed Deposit"},{"applicationID":"45d4aea7-c916-4868-9482-53095ace26f8","productID":"c83fa035-bb29-4ef5-91c6-da2b7a317767","categoryName":"Fixed Deposit Account","customerID":"111ebdd3-3578-4000-87a4-e79d3c0ef79b","dateOfApplication":"2024-03-11T00:00:00","dateCreated":"2024-03-11T12:07:39.81","firstName":"Richard","lastName":"Adibe","email":"Zella39@hotmail.com","phone":"+2348066923517","gender":"male","providerName":"KoboGo","providerID":"8c57cea3-940a-4369-9b82-b145b29c8de0","productName":"Knight King","providerLogoFileSystemId":"c4da296a-5c22-4c9c-aea9-61cf02de995b","amount":"530.00","interestRate":"12","duration":"6","categoryUrlSlug":"fixed-deposit-account","applicationStatus":"Savings Pending","applicationNumber":"24/FP-0076/NC/0062","allApplicationId":"41477328-1ddc-4986-ae1e-5e8612069462","commonPersonalDetailID":"4349cf2e-4d48-4f50-b031-c5662943e407","customerIdentityId":null,"concurrencyHash":"2C2D4194FFA68A2791EB234CA5741C5F1AF937A018A1D2A85E4E37FD05D6156F","dataSource":"Common Applications","commonBankAccountDetailSourceId":"efd6d652-42ad-497d-85a7-d9839a02d2d3","commonBankAccountDetailIncomingId":"efd6d652-42ad-497d-85a7-d9839a02d2d3","commonAddressDetailId":"a5fec2cc-8fec-4f01-9687-07e8d4de9604","nextOfKinDetailId":"432391a4-2ca1-436f-99aa-eadbc7629a9e","campaignID":"","productType":"Fixed Deposit"},{"applicationID":"ac89fef7-f308-430b-84c9-bddf31417fa6","productID":"e6433ad5-c029-4700-ad0f-dfb439489f21","categoryName":"Fixed Deposit Account","customerID":"0a44ce40-dce9-4790-8f73-f492afecfddd","dateOfApplication":"2024-03-11T00:00:00","dateCreated":"2024-03-11T12:11:41.373","firstName":"Richard","lastName":"Adibe","email":"Alvena_Hauck43@gmail.com","phone":"+2348066923517","gender":"male","providerName":"Fast Credit Limited","providerID":"585006ac-57cd-4cfa-8519-780e0b628476","productName":"Investment","providerLogoFileSystemId":"7bda9a50-53bb-448c-ae13-7203e21eba30","amount":"100000.00","interestRate":"1.5","duration":"3","categoryUrlSlug":"fixed-deposit-account","applicationStatus":"Savings Pending","applicationNumber":"24/FP-0038/NC/0019","allApplicationId":"6020e888-030e-4bfe-b4ce-186eb6a8c5f3","commonPersonalDetailID":"73866e20-1fd9-4e09-a1c1-e352ff1d6768","customerIdentityId":null,"concurrencyHash":"066344FF09EDE5AF7EC6C0EF78F19645ABE8BBB8C362C74FA2561B422D6246A0","dataSource":"Common Applications","commonBankAccountDetailSourceId":"5df264e5-f288-4220-8f47-09b0841fe8c1","commonBankAccountDetailIncomingId":"5df264e5-f288-4220-8f47-09b0841fe8c1","commonAddressDetailId":"31a17f63-4ee8-4bc4-bf2c-81ee1fc4d6ca","nextOfKinDetailId":"520fc8b4-717d-45ad-9d41-d187b2c4a1da","campaignID":"","productType":"Fixed Deposit"},{"applicationID":"bfa5a4f6-b715-48e3-aca4-7ba133b7e370","productID":"e6433ad5-c029-4700-ad0f-dfb439489f21","categoryName":"Fixed Deposit Account","customerID":"375e7c0c-b889-41b1-98c6-7cb7ea6a8898","dateOfApplication":"2024-03-11T00:00:00","dateCreated":"2024-03-11T12:13:37.117","firstName":"Richard","lastName":"Adibe","email":"Clifton.Kris95@yahoo.com","phone":"+2348066923517","gender":"male","providerName":"Fast Credit Limited","providerID":"585006ac-57cd-4cfa-8519-780e0b628476","productName":"Investment","providerLogoFileSystemId":"7bda9a50-53bb-448c-ae13-7203e21eba30","amount":"100000.00","interestRate":"1.5","duration":"3","categoryUrlSlug":"fixed-deposit-account","applicationStatus":"Savings Pending","applicationNumber":"24/FP-0038/NC/0020","allApplicationId":"f30a0b2f-e2c3-4258-921a-aa53f2d6096c","commonPersonalDetailID":"8ab0ce65-e67c-4145-8973-152132a9ac5f","customerIdentityId":null,"concurrencyHash":"B878DA7DEC0EE2949CBB1903DC252E7CEA908002653CABDB24313A202C510351","dataSource":"Common Applications","commonBankAccountDetailSourceId":"f8c5a0bd-f8f5-40e1-bf7a-7e02037ed247","commonBankAccountDetailIncomingId":"f8c5a0bd-f8f5-40e1-bf7a-7e02037ed247","commonAddressDetailId":"a4c939b5-6b96-4e73-a1b6-4ebb996ede05","nextOfKinDetailId":"36676d03-95de-46b9-8c84-7cc0587c482e","campaignID":"","productType":"Fixed Deposit"},{"applicationID":"daccebeb-3c83-4991-b32b-f5fd522e6b89","productID":"c83fa035-bb29-4ef5-91c6-da2b7a317767","categoryName":"Fixed Deposit Account","customerID":"68ae5a3f-426c-4543-b05e-4b8bf450a0fd","dateOfApplication":"2024-03-11T00:00:00","dateCreated":"2024-03-11T12:12:22.453","firstName":"Richard","lastName":"Adibe","email":"Raheem.Robel18@gmail.com","phone":"+2348066923517","gender":"male","providerName":"KoboGo","providerID":"8c57cea3-940a-4369-9b82-b145b29c8de0","productName":"Knight King","providerLogoFileSystemId":"c4da296a-5c22-4c9c-aea9-61cf02de995b","amount":"100000.00","interestRate":"12","duration":"6","categoryUrlSlug":"fixed-deposit-account","applicationStatus":"Savings Pending","applicationNumber":"24/FP-0076/NC/0065","allApplicationId":"c7ffa060-991b-4a6c-bf9a-96b2579b3f1f","commonPersonalDetailID":"e5e14bcc-6a14-47d7-aae1-1cdaf07336c6","customerIdentityId":null,"concurrencyHash":"5EDD19838CA6170414F62DF4E9A1D92F40DEE9D568B6CE452BEC94200139367B","dataSource":"Common Applications","commonBankAccountDetailSourceId":"43bf37e5-e248-48f0-b4da-30faf60c93ba","commonBankAccountDetailIncomingId":"43bf37e5-e248-48f0-b4da-30faf60c93ba","commonAddressDetailId":"439c481c-49c5-4ce1-af19-d7ad5aac1912","nextOfKinDetailId":"22765e09-df33-4db2-a3f8-d4de91fa4951","campaignID":"","productType":"Fixed Deposit"},{"applicationID":"e58482ab-132b-4969-8674-4b6a9ee8fe12","productID":"c83fa035-bb29-4ef5-91c6-da2b7a317767","categoryName":"Fixed Deposit Account","customerID":"03de1cd2-92db-46cb-85be-e3f8c908bb91","dateOfApplication":"2024-03-11T00:00:00","dateCreated":"2024-03-11T12:07:43.387","firstName":"Richard","lastName":"Adibe","email":"Fredrick51@yahoo.com","phone":"+2348066923517","gender":"male","providerName":"KoboGo","providerID":"8c57cea3-940a-4369-9b82-b145b29c8de0","productName":"Knight King","providerLogoFileSystemId":"c4da296a-5c22-4c9c-aea9-61cf02de995b","amount":"100000.00","interestRate":"12","duration":"6","categoryUrlSlug":"fixed-deposit-account","applicationStatus":"Savings Pending","applicationNumber":"24/FP-0076/NC/0063","allApplicationId":"4691367b-eb48-4569-abd8-b8469d719f03","commonPersonalDetailID":"8f15a9e5-2d29-4ab9-8d77-7499752c8e43","customerIdentityId":null,"concurrencyHash":"9B8A482000921AAC7A7492CC9FD77BF5FD640C8CA5E63A9B7F4C7910C6B09103","dataSource":"Common Applications","commonBankAccountDetailSourceId":"cfe3851b-9b9b-4eba-99f3-2b1bcc2f08ff","commonBankAccountDetailIncomingId":"cfe3851b-9b9b-4eba-99f3-2b1bcc2f08ff","commonAddressDetailId":"3551420a-5728-406c-b315-6e4d8b15984c","nextOfKinDetailId":"51a77cf9-1785-48c5-a28e-cc81a3f40d8a","campaignID":"","productType":"Fixed Deposit"},{"applicationID":"23ae8994-e2d1-4141-aa01-0d4a28124e59","productID":"c83fa035-bb29-4ef5-91c6-da2b7a317767","categoryName":"Fixed Deposit Account","customerID":"542101e3-5d21-4757-9ee6-e471a64e2599","dateOfApplication":"2024-03-08T00:00:00","dateCreated":"2024-03-08T14:34:47.527","firstName":"Richard","lastName":"Adibe","email":"Lorenza.Orn97@gmail.com","phone":"+2348066923517","gender":"male","providerName":"KoboGo","providerID":"8c57cea3-940a-4369-9b82-b145b29c8de0","productName":"Knight King","providerLogoFileSystemId":"c4da296a-5c22-4c9c-aea9-61cf02de995b","amount":"100000.00","interestRate":"12","duration":"6","categoryUrlSlug":"fixed-deposit-account","applicationStatus":"Savings Pending","applicationNumber":"24/FP-0076/NC/0059","allApplicationId":"61f3165d-c474-43a1-a22d-be398f23c4a7","commonPersonalDetailID":"c7c72e88-7ff2-4a82-8bda-004fc3418e16","customerIdentityId":null,"concurrencyHash":"286AF2172415C786A9C86DAEE3256938D999BF1F91BABC8C5AABCCC877F48B96","dataSource":"Common Applications","commonBankAccountDetailSourceId":"588d136a-7768-4c56-9811-c52e7ff33f3d","commonBankAccountDetailIncomingId":"588d136a-7768-4c56-9811-c52e7ff33f3d","commonAddressDetailId":"59050a6d-3a89-4fef-8b20-599343615c21","nextOfKinDetailId":"5a8630d0-0777-4551-b97a-62dbb1f3b01f","campaignID":"","productType":"Fixed Deposit"},{"applicationID":"8b2999db-ded7-419c-9e6e-4d80476dede4","productID":"e6433ad5-c029-4700-ad0f-dfb439489f21","categoryName":"Fixed Deposit Account","customerID":"204f31cf-fde6-4a6d-82e8-6abb3baa50de","dateOfApplication":"2024-03-08T00:00:00","dateCreated":"2024-03-08T14:38:57.07","firstName":"Richard","lastName":"Adibe","email":"Destini.Pagac@gmail.com","phone":"+2348066923517","gender":"male","providerName":"Fast Credit Limited","providerID":"585006ac-57cd-4cfa-8519-780e0b628476","productName":"Investment","providerLogoFileSystemId":"7bda9a50-53bb-448c-ae13-7203e21eba30","amount":"100000.00","interestRate":"1.5","duration":"3","categoryUrlSlug":"fixed-deposit-account","applicationStatus":"Savings Pending","applicationNumber":"24/FP-0038/NC/0021","allApplicationId":"59b41d02-e06f-4506-8e87-0c42a4425069","commonPersonalDetailID":"f7f3ee9d-a966-49e3-b588-724fd73deae6","customerIdentityId":null,"concurrencyHash":"AA376BBC5ACD37B93A0733020EE8FF273D7C5AB2653099BD10279B1813622F4D","dataSource":"Common Applications","commonBankAccountDetailSourceId":"fd406545-9929-4f74-9275-06ea84ea01b0","commonBankAccountDetailIncomingId":"fd406545-9929-4f74-9275-06ea84ea01b0","commonAddressDetailId":"a6b28efc-6f14-45dc-8cb5-6c93d6d6a818","nextOfKinDetailId":"481feb9b-af55-4e8b-b39b-d39be40f9641","campaignID":"","productType":"Fixed Deposit"},{"applicationID":"91536417-0afb-4d6c-a81d-a065c382c66a","productID":"c83fa035-bb29-4ef5-91c6-da2b7a317767","categoryName":"Fixed Deposit Account","customerID":"c75a2d3f-3b67-4d3d-b3bc-e16625070cd1","dateOfApplication":"2024-03-08T00:00:00","dateCreated":"2024-03-08T14:34:43.03","firstName":"Richard","lastName":"Adibe","email":"Bertram.Little45@yahoo.com","phone":"+2348066923517","gender":"male","providerName":"KoboGo","providerID":"8c57cea3-940a-4369-9b82-b145b29c8de0","productName":"Knight King","providerLogoFileSystemId":"c4da296a-5c22-4c9c-aea9-61cf02de995b","amount":"441.00","interestRate":"12","duration":"6","categoryUrlSlug":"fixed-deposit-account","applicationStatus":"Savings Pending","applicationNumber":"24/FP-0076/NC/0058","allApplicationId":"a15d4b5b-eca8-4989-9563-2d6f23aae28c","commonPersonalDetailID":"c48501ee-883a-4096-be18-fa48285d4173","customerIdentityId":null,"concurrencyHash":"130A8274B4B827DC4BDC62C6F85FE2B90CD728ACAA072AE58AC45AD44F9CC2D1","dataSource":"Common Applications","commonBankAccountDetailSourceId":"645708d6-56b3-4118-9dc6-28e9fddebd94","commonBankAccountDetailIncomingId":"645708d6-56b3-4118-9dc6-28e9fddebd94","commonAddressDetailId":"70dbdfea-3b91-434d-8d50-540d51c5f246","nextOfKinDetailId":"d0d65163-ceee-44be-b3c2-8f3a675f9ced","campaignID":"","productType":"Fixed Deposit"},{"applicationID":"cf695401-eb42-437c-9ce0-7b2e8f9847f6","productID":"c83fa035-bb29-4ef5-91c6-da2b7a317767","categoryName":"Fixed Deposit Account","customerID":"1bc331ea-b011-43e1-9e87-7c396400b73b","dateOfApplication":"2024-03-08T00:00:00","dateCreated":"2024-03-08T18:21:46.363","firstName":"Richard","lastName":"Adibe","email":"Pierce.Schinner80@hotmail.com","phone":"+2348066923517","gender":"male","providerName":"KoboGo","providerID":"8c57cea3-940a-4369-9b82-b145b29c8de0","productName":"Knight King","providerLogoFileSystemId":"c4da296a-5c22-4c9c-aea9-61cf02de995b","amount":"100000.00","interestRate":"12","duration":"6","categoryUrlSlug":"fixed-deposit-account","applicationStatus":"Savings Pending","applicationNumber":"24/FP-0076/NC/0061","allApplicationId":"b5b8ce44-1ec8-4ee0-86f1-efc305b6ebce","commonPersonalDetailID":"5b3d9dde-1918-4d37-89dc-0fc5bc222712","customerIdentityId":null,"concurrencyHash":"A773F7A40DA3A683C1A39D7B0F6ECB102E7E0408A5FF7F298475C880F2E6B94C","dataSource":"Common Applications","commonBankAccountDetailSourceId":"2b9069e5-3f7c-4d9a-b92e-c3b17bc0cd96","commonBankAccountDetailIncomingId":"2b9069e5-3f7c-4d9a-b92e-c3b17bc0cd96","commonAddressDetailId":"e4ac53a9-a80b-48aa-9c91-78045c56d3f0","nextOfKinDetailId":"9d9f3f39-00b1-4113-8c55-e6e8c380064e","campaignID":"","productType":"Fixed Deposit"}]],"details":null},"errors":null,"statusCode":200}