{"isSuccess":true,"message":"Success","data":{"successMessage":"Records retrieved successfully","errorMessage":null,"responseCode":200,"total":802,"totalPages":81,"rowsPerPage":10,"pageItemsCount":10,"pageNumber":1,"queryString":"","list":[[{"applicationID":"6d762dd7-e126-40e5-82a3-68d8ac2ba561","productID":"c83fa035-bb29-4ef5-91c6-da2b7a317767","categoryName":"Fixed Deposit Account","customerID":"585ec1ac-376d-4283-9cb7-78965b5313ca","dateOfApplication":"2024-03-05T00:00:00","dateCreated":"2024-03-05T09:29:27.65","firstName":"Richard","lastName":"Adibe","email":"Cordelia12@gmail.com","phone":"+2348066923517","gender":"male","providerName":"KoboGo","providerID":"8c57cea3-940a-4369-9b82-b145b29c8de0","productName":"Knight King","providerLogoFileSystemId":"c4da296a-5c22-4c9c-aea9-61cf02de995b","amount":"677.00","interestRate":"12","duration":"6","categoryUrlSlug":"fixed-deposit-account","applicationStatus":"Savings Pending","applicationNumber":"24/FP-0076/NC/0046","allApplicationId":"70db2e2c-e283-4242-88b7-149f15dbbba0","commonPersonalDetailID":"b4e2a93b-dd3e-48b5-b28c-b2585955c557","customerIdentityId":null,"concurrencyHash":"B61B0DA779C107019459DB355F7652F53016A407BA3C40544D687FE14E4334CC","dataSource":"Common Applications","commonBankAccountDetailSourceId":"8ba8b17a-be06-4dc3-8c04-394a69d2901c","commonBankAccountDetailIncomingId":"8ba8b17a-be06-4dc3-8c04-394a69d2901c","commonAddressDetailId":"a36f7838-e3f1-4fa8-b4a8-f6e15c1898dd","nextOfKinDetailId":"58bb574d-6039-44d1-b971-fae9aeba7ddb","campaignID":"","productType":"Fixed Deposit"},{"applicationID":"ce3418b9-b429-483a-9414-e94f890e7de0","productID":"e6433ad5-c029-4700-ad0f-dfb439489f21","categoryName":"Fixed Deposit Account","customerID":"c77e8998-51ff-4dc7-8944-dfdca03416e5","dateOfApplication":"2024-03-05T00:00:00","dateCreated":"2024-03-05T09:33:13.14","firstName":"Richard","lastName":"Adibe","email":"Fred.Jast97@yahoo.com","phone":"+2348066923517","gender":"male","providerName":"Fast Credit Limited","providerID":"585006ac-57cd-4cfa-8519-780e0b628476","productName":"Investment","providerLogoFileSystemId":"7bda9a50-53bb-448c-ae13-7203e21eba30","amount":"100000.00","interestRate":"1.5","duration":"3","categoryUrlSlug":"fixed-deposit-account","applicationStatus":"Savings Pending","applicationNumber":"24/FP-0038/NC/0019","allApplicationId":"8b67ffff-c662-4a0c-b3e4-30644574a41b","commonPersonalDetailID":"9db97d90-8b2c-40ed-819d-68c942308dc3","customerIdentityId":null,"concurrencyHash":"70E8E45106D6AF9190509CF91AB7FA980A456175102C15D3905B91CB4F29178F","dataSource":"Common Applications","commonBankAccountDetailSourceId":"710108a8-80ed-4947-bb5e-8812d433c8cd","commonBankAccountDetailIncomingId":"710108a8-80ed-4947-bb5e-8812d433c8cd","commonAddressDetailId":"95a8e093-6201-4351-b9d2-eb4e082b2bfd","nextOfKinDetailId":"0f869023-3828-451a-be46-63819ed0ffcd","campaignID":"","productType":"Fixed Deposit"},{"applicationID":"f5f596da-a429-4b7b-8226-42e64ea13590","productID":"c83fa035-bb29-4ef5-91c6-da2b7a317767","categoryName":"Fixed Deposit Account","customerID":"eb892910-c2bc-4ec6-8ccc-dd9c7e691e87","dateOfApplication":"2024-03-05T00:00:00","dateCreated":"2024-03-05T09:29:30.803","firstName":"Richard","lastName":"Adibe","email":"Enos47@gmail.com","phone":"+2348066923517","gender":"male","providerName":"KoboGo","providerID":"8c57cea3-940a-4369-9b82-b145b29c8de0","productName":"Knight King","providerLogoFileSystemId":"c4da296a-5c22-4c9c-aea9-61cf02de995b","amount":"100000.00","interestRate":"12","duration":"6","categoryUrlSlug":"fixed-deposit-account","applicationStatus":"Savings Pending","applicationNumber":"24/FP-0076/NC/0047","allApplicationId":"55975917-6f79-4670-bd61-c226c5f7fc65","commonPersonalDetailID":"08afedd3-0900-4c5d-9700-66156c59c005","customerIdentityId":null,"concurrencyHash":"BA90A9B7019AF57F77C40237701B855EE77D07D911CC76192708BA1569E2BC36","dataSource":"Common Applications","commonBankAccountDetailSourceId":"d19dd6a3-7d02-4ec0-9cf9-59691314adb8","commonBankAccountDetailIncomingId":"d19dd6a3-7d02-4ec0-9cf9-59691314adb8","commonAddressDetailId":"8fd913dc-ca40-4e29-8cf6-53b1edf72a9a","nextOfKinDetailId":"8d69e180-2e74-4838-8f53-caea897e2eb1","campaignID":"","productType":"Fixed Deposit"},{"applicationID":"2d7addde-a914-4fa4-9ac9-3557e6a485c2","productID":"c83fa035-bb29-4ef5-91c6-da2b7a317767","categoryName":"Fixed Deposit Account","customerID":"7de7f176-be8b-4241-8e57-517b7caa3873","dateOfApplication":"2024-03-04T00:00:00","dateCreated":"2024-03-04T08:26:18.17","firstName":"Richard","lastName":"Adibe","email":"Victoria_Kuhlman36@hotmail.com","phone":"+2348066923517","gender":"male","providerName":"KoboGo","providerID":"8c57cea3-940a-4369-9b82-b145b29c8de0","productName":"Knight King","providerLogoFileSystemId":"c4da296a-5c22-4c9c-aea9-61cf02de995b","amount":"24.00","interestRate":"12","duration":"6","categoryUrlSlug":"fixed-deposit-account","applicationStatus":"Savings Pending","applicationNumber":"24/FP-0076/NC/0044","allApplicationId":"7e71b9fe-85c0-4cea-9e2a-bd7225ba2a09","commonPersonalDetailID":"4612d7bc-d3c0-41fd-a1ef-0e79cc780a04","customerIdentityId":null,"concurrencyHash":"DC63ADB1B6D6EE3F733E942A4A125627676122AAE9044178D64FCA1AB196E64F","dataSource":"Common Applications","commonBankAccountDetailSourceId":"16c2c845-0422-4489-8129-9729fabdc3ec","commonBankAccountDetailIncomingId":"16c2c845-0422-4489-8129-9729fabdc3ec","commonAddressDetailId":"2b88c26d-3303-4c3b-8f4f-ec0b906d000e","nextOfKinDetailId":"f5e5225b-4c1f-4939-afb5-29e79feb6f62","campaignID":"","productType":"Fixed Deposit"},{"applicationID":"4b176d54-8da7-4a1f-8771-fd1e88c53bf5","productID":"c83fa035-bb29-4ef5-91c6-da2b7a317767","categoryName":"Fixed Deposit Account","customerID":"9da8132f-b2a5-4205-b9ec-e812cf5233c0","dateOfApplication":"2024-03-04T00:00:00","dateCreated":"2024-03-04T08:26:20.887","firstName":"Richard","lastName":"Adibe","email":"Aliyah72@hotmail.com","phone":"+2348066923517","gender":"male","providerName":"KoboGo","providerID":"8c57cea3-940a-4369-9b82-b145b29c8de0","productName":"Knight King","providerLogoFileSystemId":"c4da296a-5c22-4c9c-aea9-61cf02de995b","amount":"100000.00","interestRate":"12","duration":"6","categoryUrlSlug":"fixed-deposit-account","applicationStatus":"Savings Pending","applicationNumber":"24/FP-0076/NC/0045","allApplicationId":"b60baf81-ba26-4ea6-bc8b-88ffdb5eb358","commonPersonalDetailID":"a722a1c7-e6ed-4e6a-a7f7-9dfedb162830","customerIdentityId":null,"concurrencyHash":"27DDF159A33055DB3ED078D0F4AC8C6624AE2EC3DD81C2609FE3F1285CBA403D","dataSource":"Common Applications","commonBankAccountDetailSourceId":"d97077eb-423d-40c6-9d36-a3e070aaaa08","commonBankAccountDetailIncomingId":"d97077eb-423d-40c6-9d36-a3e070aaaa08","commonAddressDetailId":"7d365a53-585f-4c5f-b597-b397b30034bd","nextOfKinDetailId":"439966d3-75bb-44f9-be4e-8f445c893478","campaignID":"","productType":"Fixed Deposit"},{"applicationID":"7c7110d2-f186-44f9-9255-2c536490bdfe","productID":"e6433ad5-c029-4700-ad0f-dfb439489f21","categoryName":"Fixed Deposit Account","customerID":"b167dfa9-5ef4-4280-a999-cd18948ce0db","dateOfApplication":"2024-03-04T00:00:00","dateCreated":"2024-03-04T08:29:42.307","firstName":"Richard","lastName":"Adibe","email":"Rosario_Kulas@yahoo.com","phone":"+2348066923517","gender":"male","providerName":"Fast Credit Limited","providerID":"585006ac-57cd-4cfa-8519-780e0b628476","productName":"Investment","providerLogoFileSystemId":"7bda9a50-53bb-448c-ae13-7203e21eba30","amount":"100000.00","interestRate":"1.5","duration":"3","categoryUrlSlug":"fixed-deposit-account","applicationStatus":"Savings Pending","applicationNumber":"24/FP-0038/NC/0018","allApplicationId":"2d4c7da6-5f55-4716-bdd2-10879ceaeb71","commonPersonalDetailID":"7a9eb1ec-6311-4a4c-91f5-5c0886ae304f","customerIdentityId":null,"concurrencyHash":"C432D61CA863037EA845808DA57CF86F477FB7D3526182AD7DE4FFDC28FBD662","dataSource":"Common Applications","commonBankAccountDetailSourceId":"6c317301-cd31-47c2-83d7-7cdec5fad6b2","commonBankAccountDetailIncomingId":"6c317301-cd31-47c2-83d7-7cdec5fad6b2","commonAddressDetailId":"3b6572be-8cda-4115-ac01-ecd502f7ed4f","nextOfKinDetailId":"5bca70f3-2b70-432f-b788-7f73a2537bfd","campaignID":"","productType":"Fixed Deposit"},{"applicationID":"0d0b765e-3bb6-4e93-aeb7-f27070f6ac1c","productID":"e6433ad5-c029-4700-ad0f-dfb439489f21","categoryName":"Fixed Deposit Account","customerID":"4c12ef08-9b93-440c-9fa8-f705eb3ca57d","dateOfApplication":"2024-03-01T00:00:00","dateCreated":"2024-03-01T18:09:44.96","firstName":"Richard","lastName":"Adibe","email":"Sister.Deckow71@gmail.com","phone":"+2348066923517","gender":"male","providerName":"Fast Credit Limited","providerID":"585006ac-57cd-4cfa-8519-780e0b628476","productName":"Investment","providerLogoFileSystemId":"7bda9a50-53bb-448c-ae13-7203e21eba30","amount":"100000.00","interestRate":"1.5","duration":"3","categoryUrlSlug":"fixed-deposit-account","applicationStatus":"Savings Pending","applicationNumber":"24/FP-0038/NC/0020","allApplicationId":"00b2d25b-97cf-457f-9f50-41c3e34dbbf3","commonPersonalDetailID":"fb8d3350-0fb6-4880-8713-acc2231237cf","customerIdentityId":null,"concurrencyHash":"5D8572AD6D030978DAEC8D830AF3AF3B6A59AC41BA18059BCCD4BCCF122E892E","dataSource":"Common Applications","commonBankAccountDetailSourceId":"a4bf2472-0fbc-4b2c-8eee-3af7dfa16a7e","commonBankAccountDetailIncomingId":"a4bf2472-0fbc-4b2c-8eee-3af7dfa16a7e","commonAddressDetailId":"84c5d8fe-bf9e-47c8-8062-d8ffc8bf3d52","nextOfKinDetailId":"0610fba3-a846-40c0-8617-5243bbf1f788","campaignID":"","productType":"Fixed Deposit"},{"applicationID":"7086a02a-19bd-4b99-adb2-866c0dd3756f","productID":"c83fa035-bb29-4ef5-91c6-da2b7a317767","categoryName":"Fixed Deposit Account","customerID":"205ca47e-8c7a-4be2-aeb1-1faae24604d1","dateOfApplication":"2024-03-01T00:00:00","dateCreated":"2024-03-01T18:04:40","firstName":"Richard","lastName":"Adibe","email":"Kurt.Rosenbaum@gmail.com","phone":"+2348066923517","gender":"male","providerName":"KoboGo","providerID":"8c57cea3-940a-4369-9b82-b145b29c8de0","productName":"Knight King","providerLogoFileSystemId":"c4da296a-5c22-4c9c-aea9-61cf02de995b","amount":"100000.00","interestRate":"12","duration":"6","categoryUrlSlug":"fixed-deposit-account","applicationStatus":"Savings Pending","applicationNumber":"24/FP-0076/NC/0043","allApplicationId":"a588f59c-690c-4e07-b8e1-1573ca8b58cd","commonPersonalDetailID":"1caf4709-6d7a-4a40-ba03-e6fcbd4693e1","customerIdentityId":null,"concurrencyHash":"CB3DD599560038E533C10C8636DEB84DBBCF7AD27E8B417803546EB545519145","dataSource":"Common Applications","commonBankAccountDetailSourceId":"0ded9bbb-e34f-4baa-82cb-0bb601692515","commonBankAccountDetailIncomingId":"0ded9bbb-e34f-4baa-82cb-0bb601692515","commonAddressDetailId":"12cd3d7f-2260-46c1-b4a5-9d3d35a72d68","nextOfKinDetailId":"0a08708e-e18f-424e-b9ab-e4ae2b25366d","campaignID":"","productType":"Fixed Deposit"},{"applicationID":"7ab09b5c-dd5f-48e1-b826-40af23d1d7e3","productID":"c83fa035-bb29-4ef5-91c6-da2b7a317767","categoryName":"Fixed Deposit Account","customerID":"657e135f-82f8-41ea-875d-5c5e6a41ac60","dateOfApplication":"2024-03-01T00:00:00","dateCreated":"2024-03-01T18:04:37.397","firstName":"Richard","lastName":"Adibe","email":"Beatrice.Haley@gmail.com","phone":"+2348066923517","gender":"male","providerName":"KoboGo","providerID":"8c57cea3-940a-4369-9b82-b145b29c8de0","productName":"Knight King","providerLogoFileSystemId":"c4da296a-5c22-4c9c-aea9-61cf02de995b","amount":"351.00","interestRate":"12","duration":"6","categoryUrlSlug":"fixed-deposit-account","applicationStatus":"Savings Pending","applicationNumber":"24/FP-0076/NC/0042","allApplicationId":"c4cf38b2-f939-4a3b-ab61-8656cf5b3b41","commonPersonalDetailID":"b4c79729-9b1b-43fc-bfaf-cff971b480e8","customerIdentityId":null,"concurrencyHash":"FADC61CBBED39C913455A163F783974540BE7FA03BD3BC7F715BAE38291AF395","dataSource":"Common Applications","commonBankAccountDetailSourceId":"3068a64c-c7b7-406b-8e05-96fc9b850692","commonBankAccountDetailIncomingId":"3068a64c-c7b7-406b-8e05-96fc9b850692","commonAddressDetailId":"3482d293-799f-452c-9513-f44c1eed3cae","nextOfKinDetailId":"0258f53a-5d84-45f6-9c74-f5185ac170fb","campaignID":"","productType":"Fixed Deposit"},{"applicationID":"d7fa8f10-3ab9-4f7d-9d1e-b86c857f192e","productID":"e6433ad5-c029-4700-ad0f-dfb439489f21","categoryName":"Fixed Deposit Account","customerID":"11048b65-7a51-4ad9-b244-3a03fed30132","dateOfApplication":"2024-02-29T00:00:00","dateCreated":"2024-02-29T11:55:39.48","firstName":"mary","lastName":"babe","email":"minniebabe@mailinator.com","phone":"+2347011725299","gender":"female","providerName":"Fast Credit Limited","providerID":"585006ac-57cd-4cfa-8519-780e0b628476","productName":"Investment","providerLogoFileSystemId":"7bda9a50-53bb-448c-ae13-7203e21eba30","amount":"100000.00","interestRate":"1.5","duration":"3","categoryUrlSlug":"fixed-deposit-account","applicationStatus":"Cancelled","applicationNumber":"24/FP-0038/NC/0018","allApplicationId":"c21773df-000c-497c-a128-ae3e46f373a0","commonPersonalDetailID":"29bb67ec-becb-47f7-81a6-d5be33111363","customerIdentityId":null,"concurrencyHash":"788E4C7D79F3F7DDBF964186B76006DD9E3884311774EDAC5BFD4236839DB26C","dataSource":"Common Applications","commonBankAccountDetailSourceId":"b4ba9e4a-c84f-4d48-a3ed-e64db1eb4355","commonBankAccountDetailIncomingId":"b4ba9e4a-c84f-4d48-a3ed-e64db1eb4355","commonAddressDetailId":"81897afb-5d13-485e-828a-59cab73f5d2a","nextOfKinDetailId":"ed70b48e-7677-4d10-bfd1-04dd620a0e13","campaignID":"","productType":"Fixed Deposit"}]],"details":null},"errors":null,"statusCode":200}