{"isSuccess":true,"message":"Success","data":{"successMessage":"Records retrieved successfully","errorMessage":null,"responseCode":200,"total":849,"totalPages":85,"rowsPerPage":10,"pageItemsCount":10,"pageNumber":1,"queryString":"","list":[[{"applicationID":"7187266a-710c-4c34-98ec-499b788f5439","productID":"e6433ad5-c029-4700-ad0f-dfb439489f21","categoryName":"Fixed Deposit Account","customerID":"b2c90748-884c-46f9-b18d-2e220302f3e6","dateOfApplication":"2024-03-16T00:00:00","dateCreated":"2024-03-16T02:44:15.843","firstName":"Richard","lastName":"Adibe","email":"Devante_Waelchi@yahoo.com","phone":"+2348066923517","gender":"male","providerName":"Fast Credit Limited","providerID":"585006ac-57cd-4cfa-8519-780e0b628476","productName":"Investment","providerLogoFileSystemId":"7bda9a50-53bb-448c-ae13-7203e21eba30","amount":"100000.00","interestRate":"1.5","duration":"3","categoryUrlSlug":"fixed-deposit-account","applicationStatus":"Savings Pending","applicationNumber":"24/FP-0038/NC/0019","allApplicationId":"6d99ae93-49de-4eb8-aa84-67ed2622ab6d","commonPersonalDetailID":"19e46ecf-b859-490f-97d2-5c82bc807662","customerIdentityId":null,"concurrencyHash":"6A41EB70350D2015AC4681667AA7F0B153CBDED80E88B67DC6C3F611BD55AA80","dataSource":"Common Applications","commonBankAccountDetailSourceId":"661fa9ed-250b-4862-8e99-7842770001ed","commonBankAccountDetailIncomingId":"661fa9ed-250b-4862-8e99-7842770001ed","commonAddressDetailId":"56baab0e-581a-4a98-9ef5-c08a70857866","nextOfKinDetailId":"1b59037e-db51-422f-830d-795cee5f91a8","campaignID":"","productType":"Fixed Deposit"},{"applicationID":"c66ab886-1cd6-4231-bec6-e5c8992af677","productID":"c83fa035-bb29-4ef5-91c6-da2b7a317767","categoryName":"Fixed Deposit Account","customerID":"31f84bbb-e729-4cc2-a91f-1adf769006c5","dateOfApplication":"2024-03-16T00:00:00","dateCreated":"2024-03-16T02:42:14.753","firstName":"Richard","lastName":"Adibe","email":"Coleman.Schulist@yahoo.com","phone":"+2348066923517","gender":"male","providerName":"KoboGo","providerID":"8c57cea3-940a-4369-9b82-b145b29c8de0","productName":"Knight King","providerLogoFileSystemId":"c4da296a-5c22-4c9c-aea9-61cf02de995b","amount":"209.00","interestRate":"12","duration":"6","categoryUrlSlug":"fixed-deposit-account","applicationStatus":"Savings Pending","applicationNumber":"24/FP-0076/NC/0078","allApplicationId":"228e1217-545e-4836-88cf-0c212c7cfb32","commonPersonalDetailID":"53b068d6-0945-4bd8-81c8-cd76c745383f","customerIdentityId":null,"concurrencyHash":"DF6D47CD1074FA78ED4059F8CFCF3229C54972CAA88F05C3936365882943EFF7","dataSource":"Common Applications","commonBankAccountDetailSourceId":"f71027ae-6c05-49c2-97fb-5b570e869c0a","commonBankAccountDetailIncomingId":"f71027ae-6c05-49c2-97fb-5b570e869c0a","commonAddressDetailId":"3e481f84-b2e0-43fa-aedf-ed6510eb35ec","nextOfKinDetailId":"828b293d-f8a9-4a68-abb2-103732c3b608","campaignID":"","productType":"Fixed Deposit"},{"applicationID":"d06da296-4b27-4c7f-82ad-0b4362ca36e1","productID":"c83fa035-bb29-4ef5-91c6-da2b7a317767","categoryName":"Fixed Deposit Account","customerID":"23885cdb-8bde-4754-8952-79addae6d8c5","dateOfApplication":"2024-03-16T00:00:00","dateCreated":"2024-03-16T02:42:20.06","firstName":"Richard","lastName":"Adibe","email":"Modesto30@gmail.com","phone":"+2348066923517","gender":"male","providerName":"KoboGo","providerID":"8c57cea3-940a-4369-9b82-b145b29c8de0","productName":"Knight King","providerLogoFileSystemId":"c4da296a-5c22-4c9c-aea9-61cf02de995b","amount":"100000.00","interestRate":"12","duration":"6","categoryUrlSlug":"fixed-deposit-account","applicationStatus":"Savings Pending","applicationNumber":"24/FP-0076/NC/0079","allApplicationId":"4ddc5972-f606-4711-ba45-b0403b74ea7d","commonPersonalDetailID":"730d8aa2-7623-46df-9a80-0518c774333a","customerIdentityId":null,"concurrencyHash":"BD232DAED305154FDEEE5C00B9C712AFC429618433CA6F2FC99C8C43183B257B","dataSource":"Common Applications","commonBankAccountDetailSourceId":"19d9e922-fde0-4842-b60d-9f4a18ee9edf","commonBankAccountDetailIncomingId":"19d9e922-fde0-4842-b60d-9f4a18ee9edf","commonAddressDetailId":"45a3711a-8dff-4031-a31d-6a2db515e798","nextOfKinDetailId":"7b0d5206-4b2f-4a35-a6db-15a7bfeb45a6","campaignID":"","productType":"Fixed Deposit"},{"applicationID":"25d365f9-50cc-45af-a3cf-a3666fa507aa","productID":"c83fa035-bb29-4ef5-91c6-da2b7a317767","categoryName":"Fixed Deposit Account","customerID":"202d7f5f-ab7d-4ab0-bb2e-f7a50bf921fb","dateOfApplication":"2024-03-15T00:00:00","dateCreated":"2024-03-15T18:27:38.77","firstName":"Richard","lastName":"Adibe","email":"Roosevelt79@hotmail.com","phone":"+2348066923517","gender":"male","providerName":"KoboGo","providerID":"8c57cea3-940a-4369-9b82-b145b29c8de0","productName":"Knight King","providerLogoFileSystemId":"c4da296a-5c22-4c9c-aea9-61cf02de995b","amount":"535.00","interestRate":"12","duration":"6","categoryUrlSlug":"fixed-deposit-account","applicationStatus":"Savings Pending","applicationNumber":"24/FP-0076/NC/0076","allApplicationId":"311b588f-c1d0-4253-8090-e673400a3b37","commonPersonalDetailID":"cf696b0e-b79b-40bc-abc1-49940af7ed0a","customerIdentityId":null,"concurrencyHash":"38FDA7F9C26D16EEFF87A08CA1F6258721040406C9731FE813487DE723DB78B4","dataSource":"Common Applications","commonBankAccountDetailSourceId":"829c8a2a-6f23-4c8e-bb4f-f87b6eb8e056","commonBankAccountDetailIncomingId":"829c8a2a-6f23-4c8e-bb4f-f87b6eb8e056","commonAddressDetailId":"52219581-df7a-4e45-97f2-c076d5c886ac","nextOfKinDetailId":"8d41bde7-749c-4d63-ae4d-94e061b1b316","campaignID":"","productType":"Fixed Deposit"},{"applicationID":"47eedc89-21a8-4b7b-a43c-13024d6d6d89","productID":"c83fa035-bb29-4ef5-91c6-da2b7a317767","categoryName":"Fixed Deposit Account","customerID":"837fc474-f878-4680-b91e-b18e212cdf7d","dateOfApplication":"2024-03-15T00:00:00","dateCreated":"2024-03-15T18:27:40.973","firstName":"Richard","lastName":"Adibe","email":"Donato_Connelly22@yahoo.com","phone":"+2348066923517","gender":"male","providerName":"KoboGo","providerID":"8c57cea3-940a-4369-9b82-b145b29c8de0","productName":"Knight King","providerLogoFileSystemId":"c4da296a-5c22-4c9c-aea9-61cf02de995b","amount":"100000.00","interestRate":"12","duration":"6","categoryUrlSlug":"fixed-deposit-account","applicationStatus":"Savings Pending","applicationNumber":"24/FP-0076/NC/0077","allApplicationId":"41f46141-a6d2-410c-815b-90d68e7b2139","commonPersonalDetailID":"604c4957-ec31-4597-9d64-eddb34678656","customerIdentityId":null,"concurrencyHash":"122315841619FBD8CBD06AB3D5CFF4766986D942A5429A5906929006E1D400D1","dataSource":"Common Applications","commonBankAccountDetailSourceId":"02a7773a-71b9-49bf-a82c-6050d1dc8498","commonBankAccountDetailIncomingId":"02a7773a-71b9-49bf-a82c-6050d1dc8498","commonAddressDetailId":"7e93149a-68d7-4724-a725-7a3f43469585","nextOfKinDetailId":"c7920e26-dd24-4126-bee6-41ed6b41b707","campaignID":"","productType":"Fixed Deposit"},{"applicationID":"a2794876-afa6-4c9f-910a-c9adb25ca0af","productID":"e6433ad5-c029-4700-ad0f-dfb439489f21","categoryName":"Fixed Deposit Account","customerID":"ba705efa-d4c5-4ccd-89dc-4a193eb07837","dateOfApplication":"2024-03-15T00:00:00","dateCreated":"2024-03-15T18:30:56.43","firstName":"Richard","lastName":"Adibe","email":"Bonnie51@gmail.com","phone":"+2348066923517","gender":"male","providerName":"Fast Credit Limited","providerID":"585006ac-57cd-4cfa-8519-780e0b628476","productName":"Investment","providerLogoFileSystemId":"7bda9a50-53bb-448c-ae13-7203e21eba30","amount":"100000.00","interestRate":"1.5","duration":"3","categoryUrlSlug":"fixed-deposit-account","applicationStatus":"Savings Pending","applicationNumber":"24/FP-0038/NC/0018","allApplicationId":"ae68de84-bc39-4ba1-9572-9acc82f34322","commonPersonalDetailID":"f44dcfc6-f15b-4090-8179-56153922175c","customerIdentityId":null,"concurrencyHash":"096CF627630DB4322B14750F6979589C7FF5E0AFD479C4F4563B77B1A80A4CED","dataSource":"Common Applications","commonBankAccountDetailSourceId":"221f65a9-072b-49ab-9a16-69f56f107ed3","commonBankAccountDetailIncomingId":"221f65a9-072b-49ab-9a16-69f56f107ed3","commonAddressDetailId":"3dcaaf24-7570-42d4-8d7d-02a45cbaac8b","nextOfKinDetailId":"88863ba3-8f99-475f-8f9b-6f5f338ceb66","campaignID":"","productType":"Fixed Deposit"},{"applicationID":"e69cd3a8-9ebf-414f-8d50-487fadd9e80c","productID":"641d798f-d143-4f8a-9d66-c670c9cbd988","categoryName":"Personal Savings Account","customerID":"6d20aa82-e4c0-4736-877a-c889fcb7c3af","dateOfApplication":"2024-03-13T00:00:00","dateCreated":"2024-03-13T08:29:23.61","firstName":"Titi","lastName":"Brown","email":"oluwatosin.awosiga+007@suretre","phone":"+2348024500654","gender":"female","providerName":"CIT Microfinance Bank Limited","providerID":"2d689e10-c9c9-454e-82f3-63591e1becb4","productName":"Bluechip","providerLogoFileSystemId":"bad6e24b-7c3d-42ef-ace0-916eca018964","amount":"50000.00","interestRate":null,"duration":"6","categoryUrlSlug":"personal-savings-account","applicationStatus":"Savings Pending","applicationNumber":"24/FP-0012/NC/0260","allApplicationId":"ec79c538-f93a-4d81-ad55-2abb639c74b9","commonPersonalDetailID":null,"customerIdentityId":null,"concurrencyHash":null,"dataSource":"Customer Savings","commonBankAccountDetailSourceId":null,"commonBankAccountDetailIncomingId":null,"commonAddressDetailId":null,"nextOfKinDetailId":null,"campaignID":null,"productType":"Savings"},{"applicationID":"178e1df9-0d60-44e2-8c05-fb891e6aa67c","productID":"e6433ad5-c029-4700-ad0f-dfb439489f21","categoryName":"Fixed Deposit Account","customerID":"4e834a39-3091-405f-a85a-94888c6b5f63","dateOfApplication":"2024-03-12T00:00:00","dateCreated":"2024-03-12T09:16:31.983","firstName":"Richard","lastName":"Adibe","email":"Torey.Ratke36@yahoo.com","phone":"+2348066923517","gender":"male","providerName":"Fast Credit Limited","providerID":"585006ac-57cd-4cfa-8519-780e0b628476","productName":"Investment","providerLogoFileSystemId":"7bda9a50-53bb-448c-ae13-7203e21eba30","amount":"100000.00","interestRate":"1.5","duration":"3","categoryUrlSlug":"fixed-deposit-account","applicationStatus":"Savings Pending","applicationNumber":"24/FP-0038/NC/0022","allApplicationId":"0e8dfc23-7bb6-4416-8f4e-d9156b94996f","commonPersonalDetailID":"928e3ad1-c2a3-4a37-a840-01abca59650c","customerIdentityId":null,"concurrencyHash":"02B64A0661FF2BC2D4D26B72EB611AAF440C203793A16AD396A166EA484C8E8A","dataSource":"Common Applications","commonBankAccountDetailSourceId":"31e52a51-79b0-40ce-9eaa-e74a8e5b0499","commonBankAccountDetailIncomingId":"31e52a51-79b0-40ce-9eaa-e74a8e5b0499","commonAddressDetailId":"90ba5c08-4ec9-4819-925c-5e02bb6ba650","nextOfKinDetailId":"239f359a-77dc-400a-ad06-ba98358bd8c2","campaignID":"","productType":"Fixed Deposit"},{"applicationID":"388a2115-e75e-408f-a266-110160ff2637","productID":"e6433ad5-c029-4700-ad0f-dfb439489f21","categoryName":"Fixed Deposit Account","customerID":"784ab013-0d61-4b97-8307-df248d39444d","dateOfApplication":"2024-03-12T00:00:00","dateCreated":"2024-03-12T04:42:56.357","firstName":"Richard","lastName":"Adibe","email":"Rosalind_Kemmer@yahoo.com","phone":"+2348066923517","gender":"male","providerName":"Fast Credit Limited","providerID":"585006ac-57cd-4cfa-8519-780e0b628476","productName":"Investment","providerLogoFileSystemId":"7bda9a50-53bb-448c-ae13-7203e21eba30","amount":"100000.00","interestRate":"1.5","duration":"3","categoryUrlSlug":"fixed-deposit-account","applicationStatus":"Savings Pending","applicationNumber":"24/FP-0038/NC/0021","allApplicationId":"4bed0bd1-062d-4144-884b-c279b4945cd1","commonPersonalDetailID":"114b65b2-5c81-4636-bcf6-e7c9849d9e4c","customerIdentityId":null,"concurrencyHash":"C730222598624D3E49681D9CA81F647FFE2D83594F959D3185807BA7F649CD8B","dataSource":"Common Applications","commonBankAccountDetailSourceId":"9ebabed9-b147-4242-b55f-b9a616702cd8","commonBankAccountDetailIncomingId":"9ebabed9-b147-4242-b55f-b9a616702cd8","commonAddressDetailId":"23571950-0102-4481-9297-c1ae1bef905a","nextOfKinDetailId":"0fe9f3a9-f18b-49c8-8fff-0c794b746351","campaignID":"","productType":"Fixed Deposit"},{"applicationID":"4574b2f7-fa15-41bb-8a9b-2259268af1fd","productID":"c83fa035-bb29-4ef5-91c6-da2b7a317767","categoryName":"Fixed Deposit Account","customerID":"241d61ef-6eeb-4fef-bcbf-cfbfbe53acbf","dateOfApplication":"2024-03-12T00:00:00","dateCreated":"2024-03-12T03:49:02.433","firstName":"Richard","lastName":"Adibe","email":"Kim98@gmail.com","phone":"+2348066923517","gender":"male","providerName":"KoboGo","providerID":"8c57cea3-940a-4369-9b82-b145b29c8de0","productName":"Knight King","providerLogoFileSystemId":"c4da296a-5c22-4c9c-aea9-61cf02de995b","amount":"734.00","interestRate":"12","duration":"6","categoryUrlSlug":"fixed-deposit-account","applicationStatus":"Savings Pending","applicationNumber":"24/FP-0076/NC/0068","allApplicationId":"d4686ba1-3b12-49f6-b2f5-0a2c114a766e","commonPersonalDetailID":"d154224f-aa5a-4011-91d5-8b04d73136cf","customerIdentityId":null,"concurrencyHash":"2EE734B4F94A68548B1E695D668737B7FEED83F38548CEF5ECEA28EF5F603067","dataSource":"Common Applications","commonBankAccountDetailSourceId":"18f36328-ccde-4965-a2e9-c754b65f3246","commonBankAccountDetailIncomingId":"18f36328-ccde-4965-a2e9-c754b65f3246","commonAddressDetailId":"6c3e7744-69e3-41ce-bc89-42c7cfbc437b","nextOfKinDetailId":"a34ba36c-c7ad-4f4e-b994-bcb19cb32542","campaignID":"","productType":"Fixed Deposit"}]],"details":null},"errors":null,"statusCode":200}