{"isSuccess":true,"message":"Success","data":{"successMessage":"Records retrieved successfully","errorMessage":null,"responseCode":200,"total":855,"totalPages":86,"rowsPerPage":10,"pageItemsCount":10,"pageNumber":1,"queryString":"","list":[[{"applicationID":"0fd635ea-c79b-46df-9ca1-877419a5988c","productID":"c83fa035-bb29-4ef5-91c6-da2b7a317767","categoryName":"Fixed Deposit Account","customerID":"ff889068-d874-4e0e-bd11-ca224d344251","dateOfApplication":"2024-03-22T00:00:00","dateCreated":"2024-03-22T18:04:22.38","firstName":"Richard","lastName":"Adibe","email":"Santino64@yahoo.com","phone":"+2348066923517","gender":"male","providerName":"KoboGo","providerID":"8c57cea3-940a-4369-9b82-b145b29c8de0","productName":"Knight King","providerLogoFileSystemId":"c4da296a-5c22-4c9c-aea9-61cf02de995b","amount":"45.00","interestRate":"12","duration":"6","categoryUrlSlug":"fixed-deposit-account","applicationStatus":"Savings Pending","applicationNumber":"24/FP-0076/NC/0069","allApplicationId":"35b419e1-a247-4200-9279-d19d91dde824","commonPersonalDetailID":"5f0b1afd-44d3-42b6-98bd-b59f28b08f14","customerIdentityId":null,"concurrencyHash":"520580D69D28F2CEF4987D63D6164A40B845A150B33BD172980F4AA6D0EE41FD","dataSource":"Common Applications","commonBankAccountDetailSourceId":"98c75ea0-163e-4842-bd17-5d7145fbd9d7","commonBankAccountDetailIncomingId":"98c75ea0-163e-4842-bd17-5d7145fbd9d7","commonAddressDetailId":"c4400059-3ea6-458b-88f7-88e87f25d81c","nextOfKinDetailId":"8ab62525-d595-4388-9122-8b973d24e122","campaignID":"","productType":"Fixed Deposit","expectedReturns":null,"maturityDate":null,"netAssetValue":null,"lastInvestmentYTDPercentage":null,"applicantType":null},{"applicationID":"2217a787-db83-445a-a454-8582150eacbd","productID":"e6433ad5-c029-4700-ad0f-dfb439489f21","categoryName":"Fixed Deposit Account","customerID":"166abd2c-62a9-4c8a-b15c-fa74c7a67f91","dateOfApplication":"2024-03-22T00:00:00","dateCreated":"2024-03-22T18:07:47.423","firstName":"Richard","lastName":"Adibe","email":"Frederik_Glover39@yahoo.com","phone":"+2348066923517","gender":"male","providerName":"Fast Credit Limited","providerID":"585006ac-57cd-4cfa-8519-780e0b628476","productName":"Investment","providerLogoFileSystemId":"7bda9a50-53bb-448c-ae13-7203e21eba30","amount":"100000.00","interestRate":"1.5","duration":"3","categoryUrlSlug":"fixed-deposit-account","applicationStatus":"Savings Pending","applicationNumber":"24/FP-0038/NC/0020","allApplicationId":"2d85dc63-4d41-4beb-8e17-9df02069ce69","commonPersonalDetailID":"6fca270f-72d1-4a58-9d28-d28ee7d8399f","customerIdentityId":null,"concurrencyHash":"D7B48491CA51CB72900A3F77E2CC6E3B69DE091921AFB393BEC3A89D6CA137C0","dataSource":"Common Applications","commonBankAccountDetailSourceId":"8adc7798-509d-41e4-8298-feaf5833008d","commonBankAccountDetailIncomingId":"8adc7798-509d-41e4-8298-feaf5833008d","commonAddressDetailId":"93ce90eb-1428-4395-be77-5831e5e17a6c","nextOfKinDetailId":"263db815-99b6-4e9d-ad7a-5326fc54534b","campaignID":"","productType":"Fixed Deposit","expectedReturns":null,"maturityDate":null,"netAssetValue":null,"lastInvestmentYTDPercentage":null,"applicantType":null},{"applicationID":"2ac47d05-335a-4b7f-9234-bb5ff44536af","productID":"535c7801-fd6c-426d-9d41-1fbe5fbb3ad2","categoryName":"Fixed Income Fund","customerID":"fada8169-b2e9-4fef-9285-f84f4140ed1e","dateOfApplication":"2024-03-22T00:00:00","dateCreated":"2024-03-22T11:53:25.427","firstName":"Jack","lastName":"Jin","email":"jack@yopmail.com","phone":"+2348080504799","gender":"Male","providerName":"Direct Bridge","providerID":"d0998724-15c1-4991-99cd-dadf408c735b","productName":"Staging Test Product 002","providerLogoFileSystemId":"bda8532a-a383-4727-a0b0-d009f134fdf0","amount":"200000.00","interestRate":null,"duration":"6","categoryUrlSlug":"fixed-income-fund","applicationStatus":"Cancelled","applicationNumber":"24/FP-0036/NC/0029","allApplicationId":"33011605-e067-4852-8d97-6d5e058b36ce","commonPersonalDetailID":"a91f769b-1fba-450c-8983-2f663196f540","customerIdentityId":null,"concurrencyHash":"5D4642BA22CE298CCAFD0960DD70D9D05E97964775E230289ED62EEE0FACA892","dataSource":"Common Applications","commonBankAccountDetailSourceId":"0cc3b247-5f36-4c5b-973d-d4f73b442b9a","commonBankAccountDetailIncomingId":"0cc3b247-5f36-4c5b-973d-d4f73b442b9a","commonAddressDetailId":"455f4c37-301c-43cd-9f83-15b489fbc805","nextOfKinDetailId":"fa6b7d17-08a2-4065-8d2e-a132bc152f82","campaignID":"","productType":"Others","expectedReturns":64100.000000,"maturityDate":"2024-09-22T11:53:25.427","netAssetValue":264100.000000,"lastInvestmentYTDPercentage":32.05,"applicantType":"Individual"},{"applicationID":"4c4857c6-fbf6-43b4-96d9-4b12d8922fe7","productID":"535c7801-fd6c-426d-9d41-1fbe5fbb3ad2","categoryName":"Fixed Income Fund","customerID":"fada8169-b2e9-4fef-9285-f84f4140ed1e","dateOfApplication":"2024-03-22T00:00:00","dateCreated":"2024-03-22T11:23:33.5","firstName":"Jack","lastName":"Jin","email":"jack@yopmail.com","phone":"+2348080504799","gender":"Male","providerName":"Direct Bridge","providerID":"d0998724-15c1-4991-99cd-dadf408c735b","productName":"Staging Test Product 002","providerLogoFileSystemId":"bda8532a-a383-4727-a0b0-d009f134fdf0","amount":"100000.00","interestRate":null,"duration":"6","categoryUrlSlug":"fixed-income-fund","applicationStatus":"Pending","applicationNumber":"24/FP-0036/NC/0027","allApplicationId":"bf2bd633-b77f-452f-b9a8-4be76a06ced9","commonPersonalDetailID":"e9cd0f2b-ba7d-464c-a257-351c1c865681","customerIdentityId":null,"concurrencyHash":"383C152EB5AA8013CA0D53BF55FC9849B702645042BDE16BCD7A67BAFC8E56CA","dataSource":"Common Applications","commonBankAccountDetailSourceId":"a80272c3-93a2-48aa-a728-7b839cc05e91","commonBankAccountDetailIncomingId":"a80272c3-93a2-48aa-a728-7b839cc05e91","commonAddressDetailId":"6cee7874-a96a-4a16-a658-96283510684d","nextOfKinDetailId":"1a5d20e1-a3b5-42c6-bb5d-8d9b8dcd0108","campaignID":"","productType":"Others","expectedReturns":32050.000000,"maturityDate":"2024-09-22T11:23:33.5","netAssetValue":132050.000000,"lastInvestmentYTDPercentage":32.05,"applicantType":"Joint"},{"applicationID":"9f808524-6ce6-4494-83d4-ea52c57c1fa5","productID":"c83fa035-bb29-4ef5-91c6-da2b7a317767","categoryName":"Fixed Deposit Account","customerID":"1274968e-2483-4911-8a06-cd80cdc158ba","dateOfApplication":"2024-03-22T00:00:00","dateCreated":"2024-03-22T18:04:24.967","firstName":"Richard","lastName":"Adibe","email":"Ottis_Bechtelar@gmail.com","phone":"+2348066923517","gender":"male","providerName":"KoboGo","providerID":"8c57cea3-940a-4369-9b82-b145b29c8de0","productName":"Knight King","providerLogoFileSystemId":"c4da296a-5c22-4c9c-aea9-61cf02de995b","amount":"100000.00","interestRate":"12","duration":"6","categoryUrlSlug":"fixed-deposit-account","applicationStatus":"Savings Pending","applicationNumber":"24/FP-0076/NC/0070","allApplicationId":"c00335f0-ff7a-4cc6-8be2-3d8c9de1a38d","commonPersonalDetailID":"875170fd-6bde-4634-b5ba-6a146b56eb2c","customerIdentityId":null,"concurrencyHash":"DDF5D69E6946397DB96F8BD8011D1ADED6AD00B922B6418A2A62D246B115DC66","dataSource":"Common Applications","commonBankAccountDetailSourceId":"fa15c708-36d8-4e3f-b0ad-85441cd9ec48","commonBankAccountDetailIncomingId":"fa15c708-36d8-4e3f-b0ad-85441cd9ec48","commonAddressDetailId":"03bfee03-13aa-4df7-8133-3d7901c88b44","nextOfKinDetailId":"73dc550e-166e-4d08-9afa-47bbdff9c397","campaignID":"","productType":"Fixed Deposit","expectedReturns":null,"maturityDate":null,"netAssetValue":null,"lastInvestmentYTDPercentage":null,"applicantType":null},{"applicationID":"6d554a3f-0860-4a55-8e35-6a27d10f65a4","productID":"d1512204-bc26-4b66-994b-0c574c955de4","categoryName":"Money Market Fund","customerID":"1b8d44b4-8a49-4f81-9f08-2b40ad1a504c","dateOfApplication":"2024-03-21T00:00:00","dateCreated":"2024-03-21T15:03:44.637","firstName":"Tester","lastName":"Testing","email":"test-dev-suretree@yopmail.com","phone":"+2348042153472","gender":"male","providerName":"Lidya","providerID":"84a1cfdb-50a0-46b2-af81-dde5b27ee5db","productName":"Binance","providerLogoFileSystemId":"974b9475-d255-450f-85ed-5fe1d641877f","amount":"500000.00","interestRate":null,"duration":"3","categoryUrlSlug":"money-market-fund","applicationStatus":"Pending","applicationNumber":"24/FP-0019/NC/0002","allApplicationId":"cb6dfa44-cccd-4020-a1d5-9f12c54f3e0e","commonPersonalDetailID":null,"customerIdentityId":null,"concurrencyHash":"83CF0746EBC35E0040773AF3D664765B57323F4107FD9A6D25569377FECD4208","dataSource":"Common Applications","commonBankAccountDetailSourceId":"fca6cdae-3787-41b9-b225-33ef57a34b19","commonBankAccountDetailIncomingId":"fca6cdae-3787-41b9-b225-33ef57a34b19","commonAddressDetailId":null,"nextOfKinDetailId":null,"campaignID":"","productType":"Others","expectedReturns":57500.000000,"maturityDate":"2024-06-21T15:03:44.637","netAssetValue":557500.000000,"lastInvestmentYTDPercentage":11.50,"applicantType":"Corporate"},{"applicationID":"f2dd29ff-ada5-4b79-a789-2dfd3bfd0cf5","productID":"d1512204-bc26-4b66-994b-0c574c955de4","categoryName":"Money Market Fund","customerID":"1b8d44b4-8a49-4f81-9f08-2b40ad1a504c","dateOfApplication":"2024-03-21T00:00:00","dateCreated":"2024-03-21T19:44:37.443","firstName":"Tester","lastName":"Testing","email":"test-dev-suretree@yopmail.com","phone":"+2348042153472","gender":"male","providerName":"Lidya","providerID":"84a1cfdb-50a0-46b2-af81-dde5b27ee5db","productName":"Binance","providerLogoFileSystemId":"974b9475-d255-450f-85ed-5fe1d641877f","amount":"500000.00","interestRate":null,"duration":"3","categoryUrlSlug":"money-market-fund","applicationStatus":"Cancelled","applicationNumber":"24/FP-0019/NC/0003","allApplicationId":"a76b6cf1-d20e-41c5-857b-99ac37ab6cc1","commonPersonalDetailID":"646b19e1-5b20-4dfd-a398-72ce895a5e39","customerIdentityId":null,"concurrencyHash":"A8770056E50BD2BD31003F4889A623BEEEBCB1341212F8460C05A87F188B3149","dataSource":"Common Applications","commonBankAccountDetailSourceId":"f680b2d9-d48e-4934-972b-e5738835f586","commonBankAccountDetailIncomingId":"f680b2d9-d48e-4934-972b-e5738835f586","commonAddressDetailId":"8d6d6860-2ef8-471d-8b37-88c24fc3cf37","nextOfKinDetailId":"0b792fb9-0b54-4be1-91fe-c4a67bf7b34f","campaignID":"","productType":"Others","expectedReturns":57500.000000,"maturityDate":"2024-06-21T19:44:37.443","netAssetValue":557500.000000,"lastInvestmentYTDPercentage":11.50,"applicantType":"Individual"},{"applicationID":"7187266a-710c-4c34-98ec-499b788f5439","productID":"e6433ad5-c029-4700-ad0f-dfb439489f21","categoryName":"Fixed Deposit Account","customerID":"b2c90748-884c-46f9-b18d-2e220302f3e6","dateOfApplication":"2024-03-16T00:00:00","dateCreated":"2024-03-16T02:44:15.843","firstName":"Richard","lastName":"Adibe","email":"Devante_Waelchi@yahoo.com","phone":"+2348066923517","gender":"male","providerName":"Fast Credit Limited","providerID":"585006ac-57cd-4cfa-8519-780e0b628476","productName":"Investment","providerLogoFileSystemId":"7bda9a50-53bb-448c-ae13-7203e21eba30","amount":"100000.00","interestRate":"1.5","duration":"3","categoryUrlSlug":"fixed-deposit-account","applicationStatus":"Savings Pending","applicationNumber":"24/FP-0038/NC/0019","allApplicationId":"6d99ae93-49de-4eb8-aa84-67ed2622ab6d","commonPersonalDetailID":"19e46ecf-b859-490f-97d2-5c82bc807662","customerIdentityId":null,"concurrencyHash":"6A41EB70350D2015AC4681667AA7F0B153CBDED80E88B67DC6C3F611BD55AA80","dataSource":"Common Applications","commonBankAccountDetailSourceId":"661fa9ed-250b-4862-8e99-7842770001ed","commonBankAccountDetailIncomingId":"661fa9ed-250b-4862-8e99-7842770001ed","commonAddressDetailId":"56baab0e-581a-4a98-9ef5-c08a70857866","nextOfKinDetailId":"1b59037e-db51-422f-830d-795cee5f91a8","campaignID":"","productType":"Fixed Deposit","expectedReturns":null,"maturityDate":null,"netAssetValue":null,"lastInvestmentYTDPercentage":null,"applicantType":null},{"applicationID":"c66ab886-1cd6-4231-bec6-e5c8992af677","productID":"c83fa035-bb29-4ef5-91c6-da2b7a317767","categoryName":"Fixed Deposit Account","customerID":"31f84bbb-e729-4cc2-a91f-1adf769006c5","dateOfApplication":"2024-03-16T00:00:00","dateCreated":"2024-03-16T02:42:14.753","firstName":"Richard","lastName":"Adibe","email":"Coleman.Schulist@yahoo.com","phone":"+2348066923517","gender":"male","providerName":"KoboGo","providerID":"8c57cea3-940a-4369-9b82-b145b29c8de0","productName":"Knight King","providerLogoFileSystemId":"c4da296a-5c22-4c9c-aea9-61cf02de995b","amount":"209.00","interestRate":"12","duration":"6","categoryUrlSlug":"fixed-deposit-account","applicationStatus":"Savings Pending","applicationNumber":"24/FP-0076/NC/0078","allApplicationId":"228e1217-545e-4836-88cf-0c212c7cfb32","commonPersonalDetailID":"53b068d6-0945-4bd8-81c8-cd76c745383f","customerIdentityId":null,"concurrencyHash":"DF6D47CD1074FA78ED4059F8CFCF3229C54972CAA88F05C3936365882943EFF7","dataSource":"Common Applications","commonBankAccountDetailSourceId":"f71027ae-6c05-49c2-97fb-5b570e869c0a","commonBankAccountDetailIncomingId":"f71027ae-6c05-49c2-97fb-5b570e869c0a","commonAddressDetailId":"3e481f84-b2e0-43fa-aedf-ed6510eb35ec","nextOfKinDetailId":"828b293d-f8a9-4a68-abb2-103732c3b608","campaignID":"","productType":"Fixed Deposit","expectedReturns":null,"maturityDate":null,"netAssetValue":null,"lastInvestmentYTDPercentage":null,"applicantType":null},{"applicationID":"d06da296-4b27-4c7f-82ad-0b4362ca36e1","productID":"c83fa035-bb29-4ef5-91c6-da2b7a317767","categoryName":"Fixed Deposit Account","customerID":"23885cdb-8bde-4754-8952-79addae6d8c5","dateOfApplication":"2024-03-16T00:00:00","dateCreated":"2024-03-16T02:42:20.06","firstName":"Richard","lastName":"Adibe","email":"Modesto30@gmail.com","phone":"+2348066923517","gender":"male","providerName":"KoboGo","providerID":"8c57cea3-940a-4369-9b82-b145b29c8de0","productName":"Knight King","providerLogoFileSystemId":"c4da296a-5c22-4c9c-aea9-61cf02de995b","amount":"100000.00","interestRate":"12","duration":"6","categoryUrlSlug":"fixed-deposit-account","applicationStatus":"Savings Pending","applicationNumber":"24/FP-0076/NC/0079","allApplicationId":"4ddc5972-f606-4711-ba45-b0403b74ea7d","commonPersonalDetailID":"730d8aa2-7623-46df-9a80-0518c774333a","customerIdentityId":null,"concurrencyHash":"BD232DAED305154FDEEE5C00B9C712AFC429618433CA6F2FC99C8C43183B257B","dataSource":"Common Applications","commonBankAccountDetailSourceId":"19d9e922-fde0-4842-b60d-9f4a18ee9edf","commonBankAccountDetailIncomingId":"19d9e922-fde0-4842-b60d-9f4a18ee9edf","commonAddressDetailId":"45a3711a-8dff-4031-a31d-6a2db515e798","nextOfKinDetailId":"7b0d5206-4b2f-4a35-a6db-15a7bfeb45a6","campaignID":"","productType":"Fixed Deposit","expectedReturns":null,"maturityDate":null,"netAssetValue":null,"lastInvestmentYTDPercentage":null,"applicantType":null}]],"details":null},"errors":null,"statusCode":200}