{"isSuccess":true,"message":"Success","data":{"successMessage":"Records retrieved successfully","errorMessage":null,"responseCode":200,"total":818,"totalPages":82,"rowsPerPage":10,"pageItemsCount":10,"pageNumber":1,"queryString":"","list":[[{"applicationID":"23ae8994-e2d1-4141-aa01-0d4a28124e59","productID":"c83fa035-bb29-4ef5-91c6-da2b7a317767","categoryName":"Fixed Deposit Account","customerID":"542101e3-5d21-4757-9ee6-e471a64e2599","dateOfApplication":"2024-03-08T00:00:00","dateCreated":"2024-03-08T14:34:47.527","firstName":"Richard","lastName":"Adibe","email":"Lorenza.Orn97@gmail.com","phone":"+2348066923517","gender":"male","providerName":"KoboGo","providerID":"8c57cea3-940a-4369-9b82-b145b29c8de0","productName":"Knight King","providerLogoFileSystemId":"c4da296a-5c22-4c9c-aea9-61cf02de995b","amount":"100000.00","interestRate":"12","duration":"6","categoryUrlSlug":"fixed-deposit-account","applicationStatus":"Savings Pending","applicationNumber":"24/FP-0076/NC/0059","allApplicationId":"61f3165d-c474-43a1-a22d-be398f23c4a7","commonPersonalDetailID":"c7c72e88-7ff2-4a82-8bda-004fc3418e16","customerIdentityId":null,"concurrencyHash":"286AF2172415C786A9C86DAEE3256938D999BF1F91BABC8C5AABCCC877F48B96","dataSource":"Common Applications","commonBankAccountDetailSourceId":"588d136a-7768-4c56-9811-c52e7ff33f3d","commonBankAccountDetailIncomingId":"588d136a-7768-4c56-9811-c52e7ff33f3d","commonAddressDetailId":"59050a6d-3a89-4fef-8b20-599343615c21","nextOfKinDetailId":"5a8630d0-0777-4551-b97a-62dbb1f3b01f","campaignID":"","productType":"Fixed Deposit"},{"applicationID":"8b2999db-ded7-419c-9e6e-4d80476dede4","productID":"e6433ad5-c029-4700-ad0f-dfb439489f21","categoryName":"Fixed Deposit Account","customerID":"204f31cf-fde6-4a6d-82e8-6abb3baa50de","dateOfApplication":"2024-03-08T00:00:00","dateCreated":"2024-03-08T14:38:57.07","firstName":"Richard","lastName":"Adibe","email":"Destini.Pagac@gmail.com","phone":"+2348066923517","gender":"male","providerName":"Fast Credit Limited","providerID":"585006ac-57cd-4cfa-8519-780e0b628476","productName":"Investment","providerLogoFileSystemId":"7bda9a50-53bb-448c-ae13-7203e21eba30","amount":"100000.00","interestRate":"1.5","duration":"3","categoryUrlSlug":"fixed-deposit-account","applicationStatus":"Savings Pending","applicationNumber":"24/FP-0038/NC/0021","allApplicationId":"59b41d02-e06f-4506-8e87-0c42a4425069","commonPersonalDetailID":"f7f3ee9d-a966-49e3-b588-724fd73deae6","customerIdentityId":null,"concurrencyHash":"AA376BBC5ACD37B93A0733020EE8FF273D7C5AB2653099BD10279B1813622F4D","dataSource":"Common Applications","commonBankAccountDetailSourceId":"fd406545-9929-4f74-9275-06ea84ea01b0","commonBankAccountDetailIncomingId":"fd406545-9929-4f74-9275-06ea84ea01b0","commonAddressDetailId":"a6b28efc-6f14-45dc-8cb5-6c93d6d6a818","nextOfKinDetailId":"481feb9b-af55-4e8b-b39b-d39be40f9641","campaignID":"","productType":"Fixed Deposit"},{"applicationID":"91536417-0afb-4d6c-a81d-a065c382c66a","productID":"c83fa035-bb29-4ef5-91c6-da2b7a317767","categoryName":"Fixed Deposit Account","customerID":"c75a2d3f-3b67-4d3d-b3bc-e16625070cd1","dateOfApplication":"2024-03-08T00:00:00","dateCreated":"2024-03-08T14:34:43.03","firstName":"Richard","lastName":"Adibe","email":"Bertram.Little45@yahoo.com","phone":"+2348066923517","gender":"male","providerName":"KoboGo","providerID":"8c57cea3-940a-4369-9b82-b145b29c8de0","productName":"Knight King","providerLogoFileSystemId":"c4da296a-5c22-4c9c-aea9-61cf02de995b","amount":"441.00","interestRate":"12","duration":"6","categoryUrlSlug":"fixed-deposit-account","applicationStatus":"Savings Pending","applicationNumber":"24/FP-0076/NC/0058","allApplicationId":"a15d4b5b-eca8-4989-9563-2d6f23aae28c","commonPersonalDetailID":"c48501ee-883a-4096-be18-fa48285d4173","customerIdentityId":null,"concurrencyHash":"130A8274B4B827DC4BDC62C6F85FE2B90CD728ACAA072AE58AC45AD44F9CC2D1","dataSource":"Common Applications","commonBankAccountDetailSourceId":"645708d6-56b3-4118-9dc6-28e9fddebd94","commonBankAccountDetailIncomingId":"645708d6-56b3-4118-9dc6-28e9fddebd94","commonAddressDetailId":"70dbdfea-3b91-434d-8d50-540d51c5f246","nextOfKinDetailId":"d0d65163-ceee-44be-b3c2-8f3a675f9ced","campaignID":"","productType":"Fixed Deposit"},{"applicationID":"029eb4cc-edcc-4fb8-b303-137c3fe50e86","productID":"c83fa035-bb29-4ef5-91c6-da2b7a317767","categoryName":"Fixed Deposit Account","customerID":"66e4de00-49c3-4048-9668-eeb0703ea275","dateOfApplication":"2024-03-06T00:00:00","dateCreated":"2024-03-06T05:09:43.927","firstName":"Richard","lastName":"Adibe","email":"Clifton_Monahan79@gmail.com","phone":"+2348066923517","gender":"male","providerName":"KoboGo","providerID":"8c57cea3-940a-4369-9b82-b145b29c8de0","productName":"Knight King","providerLogoFileSystemId":"c4da296a-5c22-4c9c-aea9-61cf02de995b","amount":"899.00","interestRate":"12","duration":"6","categoryUrlSlug":"fixed-deposit-account","applicationStatus":"Savings Pending","applicationNumber":"24/FP-0076/NC/0050","allApplicationId":"5eab6308-5554-4f28-bccc-2c9eaccab8dc","commonPersonalDetailID":"7c474c66-0a91-4e66-b344-05a670ff14ef","customerIdentityId":null,"concurrencyHash":"107C3D4E51A4A812F3E0E84FFF27EA649C4B340F8DF79D3BF5C98BD5F749112C","dataSource":"Common Applications","commonBankAccountDetailSourceId":"08327fa6-c13d-4e28-9b9d-65d61a53e9c3","commonBankAccountDetailIncomingId":"08327fa6-c13d-4e28-9b9d-65d61a53e9c3","commonAddressDetailId":"94ac9007-7f5a-41b7-a402-5db9e6489d96","nextOfKinDetailId":"1a6eccd4-177c-420d-9f24-a200be5d7364","campaignID":"","productType":"Fixed Deposit"},{"applicationID":"1ccacb2d-313e-43cc-a77e-b794b1e6c9c3","productID":"e6433ad5-c029-4700-ad0f-dfb439489f21","categoryName":"Fixed Deposit Account","customerID":"b9b1af36-a10e-4bb7-b715-dbb589331b35","dateOfApplication":"2024-03-06T00:00:00","dateCreated":"2024-03-06T05:11:31.207","firstName":"Richard","lastName":"Adibe","email":"Donny.Langworth25@gmail.com","phone":"+2348066923517","gender":"male","providerName":"Fast Credit Limited","providerID":"585006ac-57cd-4cfa-8519-780e0b628476","productName":"Investment","providerLogoFileSystemId":"7bda9a50-53bb-448c-ae13-7203e21eba30","amount":"100000.00","interestRate":"1.5","duration":"3","categoryUrlSlug":"fixed-deposit-account","applicationStatus":"Savings Pending","applicationNumber":"24/FP-0038/NC/0018","allApplicationId":"b6ad0ba1-94e6-4839-a0af-847ca5f00049","commonPersonalDetailID":"0f1d8d0b-13d8-4777-91be-dbff31dea9bf","customerIdentityId":null,"concurrencyHash":"52EFDD08081A5D7D8FA7C3F6B431A1EE144972F9D4B5EDE9BB981941E45BAB57","dataSource":"Common Applications","commonBankAccountDetailSourceId":"739d2f34-3670-4281-a0fc-175c237e51ba","commonBankAccountDetailIncomingId":"739d2f34-3670-4281-a0fc-175c237e51ba","commonAddressDetailId":"1b59b830-5d14-4c9e-afea-f3c272d6acec","nextOfKinDetailId":"5cf29fb6-8643-4c7a-8cf6-a13e1f649cfb","campaignID":"","productType":"Fixed Deposit"},{"applicationID":"1d267502-51c7-4a37-94e6-d6dea5838655","productID":"c83fa035-bb29-4ef5-91c6-da2b7a317767","categoryName":"Fixed Deposit Account","customerID":"0cad364d-a13f-4b92-8109-348de7d33fe3","dateOfApplication":"2024-03-06T00:00:00","dateCreated":"2024-03-06T05:04:47.06","firstName":"Richard","lastName":"Adibe","email":"Katarina76@yahoo.com","phone":"+2348066923517","gender":"male","providerName":"KoboGo","providerID":"8c57cea3-940a-4369-9b82-b145b29c8de0","productName":"Knight King","providerLogoFileSystemId":"c4da296a-5c22-4c9c-aea9-61cf02de995b","amount":"100000.00","interestRate":"12","duration":"6","categoryUrlSlug":"fixed-deposit-account","applicationStatus":"Savings Pending","applicationNumber":"24/FP-0076/NC/0049","allApplicationId":"3766d2ca-e99e-4193-b2af-4baee435ba8a","commonPersonalDetailID":"da9587d4-2cf9-462d-a94b-6c84784a64f7","customerIdentityId":null,"concurrencyHash":"9173D2512F2075C781F79948C1F16F411573C306F873CEC8A3C531CFD9C469D2","dataSource":"Common Applications","commonBankAccountDetailSourceId":"4e5ef4df-b495-4a9a-be97-f0be402fb7e0","commonBankAccountDetailIncomingId":"4e5ef4df-b495-4a9a-be97-f0be402fb7e0","commonAddressDetailId":"63ad6473-c3bd-4dc0-bcb9-9dbc8fb0ed51","nextOfKinDetailId":"7ecc6800-35e8-4d87-8e51-fd1c759cc70e","campaignID":"","productType":"Fixed Deposit"},{"applicationID":"6df02cda-9401-4fcf-9fb1-ba97d26be52c","productID":"c83fa035-bb29-4ef5-91c6-da2b7a317767","categoryName":"Fixed Deposit Account","customerID":"557ff330-06d8-43f6-a74b-e66327771728","dateOfApplication":"2024-03-06T00:00:00","dateCreated":"2024-03-06T05:04:44.483","firstName":"Richard","lastName":"Adibe","email":"Dayton_Barrows25@gmail.com","phone":"+2348066923517","gender":"male","providerName":"KoboGo","providerID":"8c57cea3-940a-4369-9b82-b145b29c8de0","productName":"Knight King","providerLogoFileSystemId":"c4da296a-5c22-4c9c-aea9-61cf02de995b","amount":"803.00","interestRate":"12","duration":"6","categoryUrlSlug":"fixed-deposit-account","applicationStatus":"Savings Pending","applicationNumber":"24/FP-0076/NC/0048","allApplicationId":"0bfc4ba8-6f5b-4049-b08f-a8db13d8eaee","commonPersonalDetailID":"191eae79-809b-4f0e-b134-e1fb891590f9","customerIdentityId":null,"concurrencyHash":"C0C276718B4F3EB167EAA6465B8135F41817D705073A6D431568E832B890459D","dataSource":"Common Applications","commonBankAccountDetailSourceId":"8b7ce502-d4b2-45e4-a88f-0830ab3a9c54","commonBankAccountDetailIncomingId":"8b7ce502-d4b2-45e4-a88f-0830ab3a9c54","commonAddressDetailId":"3802fc44-9e88-4d61-9f63-1cc512ade332","nextOfKinDetailId":"5b62c426-2e83-47e6-bf8e-0a044a32d002","campaignID":"","productType":"Fixed Deposit"},{"applicationID":"7d4bddd2-9558-4c8e-b23c-2eb56708be4b","productID":"e6433ad5-c029-4700-ad0f-dfb439489f21","categoryName":"Fixed Deposit Account","customerID":"5d5e0feb-a4bb-4c3e-8aa1-5f503d01ec6a","dateOfApplication":"2024-03-06T00:00:00","dateCreated":"2024-03-06T07:26:01.103","firstName":"Richard","lastName":"Adibe","email":"Lilyan_Leuschke15@gmail.com","phone":"+2348066923517","gender":"male","providerName":"Fast Credit Limited","providerID":"585006ac-57cd-4cfa-8519-780e0b628476","productName":"Investment","providerLogoFileSystemId":"7bda9a50-53bb-448c-ae13-7203e21eba30","amount":"100000.00","interestRate":"1.5","duration":"3","categoryUrlSlug":"fixed-deposit-account","applicationStatus":"Savings Pending","applicationNumber":"24/FP-0038/NC/0019","allApplicationId":"f04c11ec-d58d-412b-a36a-ec6b6cbb5e74","commonPersonalDetailID":"cfa9b4ae-3301-4b9c-97e0-871d86d79ca5","customerIdentityId":null,"concurrencyHash":"EA263C2F5AF65FFE60B539612F78FCEA6694BC5291DC8648463BFC50C7C62EC3","dataSource":"Common Applications","commonBankAccountDetailSourceId":"0dfd44c9-ac20-40b3-85d6-7ddf4d455071","commonBankAccountDetailIncomingId":"0dfd44c9-ac20-40b3-85d6-7ddf4d455071","commonAddressDetailId":"5cf958fa-b849-4b9f-9bbf-9ac679db21fa","nextOfKinDetailId":"114b0080-49e8-4a16-b8c4-c94a4023a00a","campaignID":"","productType":"Fixed Deposit"},{"applicationID":"8ed3e02a-b67a-42ca-8153-8a531b50c205","productID":"c83fa035-bb29-4ef5-91c6-da2b7a317767","categoryName":"Fixed Deposit Account","customerID":"6c782bd3-45ce-44d9-bc6f-97a7c3fb498a","dateOfApplication":"2024-03-06T00:00:00","dateCreated":"2024-03-06T07:29:52.563","firstName":"Richard","lastName":"Adibe","email":"Amely49@hotmail.com","phone":"+2348066923517","gender":"male","providerName":"KoboGo","providerID":"8c57cea3-940a-4369-9b82-b145b29c8de0","productName":"Knight King","providerLogoFileSystemId":"c4da296a-5c22-4c9c-aea9-61cf02de995b","amount":"100000.00","interestRate":"12","duration":"6","categoryUrlSlug":"fixed-deposit-account","applicationStatus":"Savings Pending","applicationNumber":"24/FP-0076/NC/0057","allApplicationId":"3031b3c7-bb46-42ba-a6b1-b4f49d311b97","commonPersonalDetailID":"fe8aee6d-8bc4-485e-ad0a-91dfc117321c","customerIdentityId":null,"concurrencyHash":"06B7E75E7E84B41AEAA5458B4C2B1B0E806C31B272BB7899B88299CDFE9B3D96","dataSource":"Common Applications","commonBankAccountDetailSourceId":"1322b0b7-8dd2-431c-b3f8-a382757ba79d","commonBankAccountDetailIncomingId":"1322b0b7-8dd2-431c-b3f8-a382757ba79d","commonAddressDetailId":"4ea610d6-9374-4f49-963a-a2b77af88f09","nextOfKinDetailId":"69c070af-8423-4019-9fc1-c2eb872542da","campaignID":"","productType":"Fixed Deposit"},{"applicationID":"8fa21d8a-8d7e-4479-8d8f-bfb84117dd7d","productID":"c83fa035-bb29-4ef5-91c6-da2b7a317767","categoryName":"Fixed Deposit Account","customerID":"8c2ae2a7-a1d6-40c6-8592-673b7522d75f","dateOfApplication":"2024-03-06T00:00:00","dateCreated":"2024-03-06T07:24:56.02","firstName":"Richard","lastName":"Adibe","email":"Irving_Heidenreich@hotmail.com","phone":"+2348066923517","gender":"male","providerName":"KoboGo","providerID":"8c57cea3-940a-4369-9b82-b145b29c8de0","productName":"Knight King","providerLogoFileSystemId":"c4da296a-5c22-4c9c-aea9-61cf02de995b","amount":"749.00","interestRate":"12","duration":"6","categoryUrlSlug":"fixed-deposit-account","applicationStatus":"Savings Pending","applicationNumber":"24/FP-0076/NC/0054","allApplicationId":"5f39473f-77fd-48dc-8bab-938b58c165a5","commonPersonalDetailID":"688ae738-3805-44b9-b501-15d29b05fa4d","customerIdentityId":null,"concurrencyHash":"51FA96AA2AB1D0E68945CE528864EAB80C951802C388B5E16BA3703EB8443476","dataSource":"Common Applications","commonBankAccountDetailSourceId":"bb9523be-2c56-4809-8da0-a3fe9f4e8ec8","commonBankAccountDetailIncomingId":"bb9523be-2c56-4809-8da0-a3fe9f4e8ec8","commonAddressDetailId":"8a55875d-c19a-4e2e-976d-b33f2a1dca57","nextOfKinDetailId":"e88967ba-9dcf-44b6-a438-176143469184","campaignID":"","productType":"Fixed Deposit"}]],"details":null},"errors":null,"statusCode":200}