{"isSuccess":true,"message":"Success","data":{"successMessage":"Records retrieved successfully","errorMessage":null,"responseCode":200,"total":808,"totalPages":81,"rowsPerPage":10,"pageItemsCount":10,"pageNumber":1,"queryString":"","list":[[{"applicationID":"029eb4cc-edcc-4fb8-b303-137c3fe50e86","productID":"c83fa035-bb29-4ef5-91c6-da2b7a317767","categoryName":"Fixed Deposit Account","customerID":"66e4de00-49c3-4048-9668-eeb0703ea275","dateOfApplication":"2024-03-06T00:00:00","dateCreated":"2024-03-06T05:09:43.927","firstName":"Richard","lastName":"Adibe","email":"Clifton_Monahan79@gmail.com","phone":"+2348066923517","gender":"male","providerName":"KoboGo","providerID":"8c57cea3-940a-4369-9b82-b145b29c8de0","productName":"Knight King","providerLogoFileSystemId":"c4da296a-5c22-4c9c-aea9-61cf02de995b","amount":"899.00","interestRate":"12","duration":"6","categoryUrlSlug":"fixed-deposit-account","applicationStatus":"Savings Pending","applicationNumber":"24/FP-0076/NC/0050","allApplicationId":"5eab6308-5554-4f28-bccc-2c9eaccab8dc","commonPersonalDetailID":"7c474c66-0a91-4e66-b344-05a670ff14ef","customerIdentityId":null,"concurrencyHash":"107C3D4E51A4A812F3E0E84FFF27EA649C4B340F8DF79D3BF5C98BD5F749112C","dataSource":"Common Applications","commonBankAccountDetailSourceId":"08327fa6-c13d-4e28-9b9d-65d61a53e9c3","commonBankAccountDetailIncomingId":"08327fa6-c13d-4e28-9b9d-65d61a53e9c3","commonAddressDetailId":"94ac9007-7f5a-41b7-a402-5db9e6489d96","nextOfKinDetailId":"1a6eccd4-177c-420d-9f24-a200be5d7364","campaignID":"","productType":"Fixed Deposit"},{"applicationID":"1ccacb2d-313e-43cc-a77e-b794b1e6c9c3","productID":"e6433ad5-c029-4700-ad0f-dfb439489f21","categoryName":"Fixed Deposit Account","customerID":"b9b1af36-a10e-4bb7-b715-dbb589331b35","dateOfApplication":"2024-03-06T00:00:00","dateCreated":"2024-03-06T05:11:31.207","firstName":"Richard","lastName":"Adibe","email":"Donny.Langworth25@gmail.com","phone":"+2348066923517","gender":"male","providerName":"Fast Credit Limited","providerID":"585006ac-57cd-4cfa-8519-780e0b628476","productName":"Investment","providerLogoFileSystemId":"7bda9a50-53bb-448c-ae13-7203e21eba30","amount":"100000.00","interestRate":"1.5","duration":"3","categoryUrlSlug":"fixed-deposit-account","applicationStatus":"Savings Pending","applicationNumber":"24/FP-0038/NC/0018","allApplicationId":"b6ad0ba1-94e6-4839-a0af-847ca5f00049","commonPersonalDetailID":"0f1d8d0b-13d8-4777-91be-dbff31dea9bf","customerIdentityId":null,"concurrencyHash":"52EFDD08081A5D7D8FA7C3F6B431A1EE144972F9D4B5EDE9BB981941E45BAB57","dataSource":"Common Applications","commonBankAccountDetailSourceId":"739d2f34-3670-4281-a0fc-175c237e51ba","commonBankAccountDetailIncomingId":"739d2f34-3670-4281-a0fc-175c237e51ba","commonAddressDetailId":"1b59b830-5d14-4c9e-afea-f3c272d6acec","nextOfKinDetailId":"5cf29fb6-8643-4c7a-8cf6-a13e1f649cfb","campaignID":"","productType":"Fixed Deposit"},{"applicationID":"1d267502-51c7-4a37-94e6-d6dea5838655","productID":"c83fa035-bb29-4ef5-91c6-da2b7a317767","categoryName":"Fixed Deposit Account","customerID":"0cad364d-a13f-4b92-8109-348de7d33fe3","dateOfApplication":"2024-03-06T00:00:00","dateCreated":"2024-03-06T05:04:47.06","firstName":"Richard","lastName":"Adibe","email":"Katarina76@yahoo.com","phone":"+2348066923517","gender":"male","providerName":"KoboGo","providerID":"8c57cea3-940a-4369-9b82-b145b29c8de0","productName":"Knight King","providerLogoFileSystemId":"c4da296a-5c22-4c9c-aea9-61cf02de995b","amount":"100000.00","interestRate":"12","duration":"6","categoryUrlSlug":"fixed-deposit-account","applicationStatus":"Savings Pending","applicationNumber":"24/FP-0076/NC/0049","allApplicationId":"3766d2ca-e99e-4193-b2af-4baee435ba8a","commonPersonalDetailID":"da9587d4-2cf9-462d-a94b-6c84784a64f7","customerIdentityId":null,"concurrencyHash":"9173D2512F2075C781F79948C1F16F411573C306F873CEC8A3C531CFD9C469D2","dataSource":"Common Applications","commonBankAccountDetailSourceId":"4e5ef4df-b495-4a9a-be97-f0be402fb7e0","commonBankAccountDetailIncomingId":"4e5ef4df-b495-4a9a-be97-f0be402fb7e0","commonAddressDetailId":"63ad6473-c3bd-4dc0-bcb9-9dbc8fb0ed51","nextOfKinDetailId":"7ecc6800-35e8-4d87-8e51-fd1c759cc70e","campaignID":"","productType":"Fixed Deposit"},{"applicationID":"6df02cda-9401-4fcf-9fb1-ba97d26be52c","productID":"c83fa035-bb29-4ef5-91c6-da2b7a317767","categoryName":"Fixed Deposit Account","customerID":"557ff330-06d8-43f6-a74b-e66327771728","dateOfApplication":"2024-03-06T00:00:00","dateCreated":"2024-03-06T05:04:44.483","firstName":"Richard","lastName":"Adibe","email":"Dayton_Barrows25@gmail.com","phone":"+2348066923517","gender":"male","providerName":"KoboGo","providerID":"8c57cea3-940a-4369-9b82-b145b29c8de0","productName":"Knight King","providerLogoFileSystemId":"c4da296a-5c22-4c9c-aea9-61cf02de995b","amount":"803.00","interestRate":"12","duration":"6","categoryUrlSlug":"fixed-deposit-account","applicationStatus":"Savings Pending","applicationNumber":"24/FP-0076/NC/0048","allApplicationId":"0bfc4ba8-6f5b-4049-b08f-a8db13d8eaee","commonPersonalDetailID":"191eae79-809b-4f0e-b134-e1fb891590f9","customerIdentityId":null,"concurrencyHash":"C0C276718B4F3EB167EAA6465B8135F41817D705073A6D431568E832B890459D","dataSource":"Common Applications","commonBankAccountDetailSourceId":"8b7ce502-d4b2-45e4-a88f-0830ab3a9c54","commonBankAccountDetailIncomingId":"8b7ce502-d4b2-45e4-a88f-0830ab3a9c54","commonAddressDetailId":"3802fc44-9e88-4d61-9f63-1cc512ade332","nextOfKinDetailId":"5b62c426-2e83-47e6-bf8e-0a044a32d002","campaignID":"","productType":"Fixed Deposit"},{"applicationID":"def76cc2-978b-453e-b007-4d02e71151cb","productID":"c83fa035-bb29-4ef5-91c6-da2b7a317767","categoryName":"Fixed Deposit Account","customerID":"8b8c533c-7989-49ca-ab82-3c3c64a04829","dateOfApplication":"2024-03-06T00:00:00","dateCreated":"2024-03-06T05:09:45.86","firstName":"Richard","lastName":"Adibe","email":"Beatrice96@hotmail.com","phone":"+2348066923517","gender":"male","providerName":"KoboGo","providerID":"8c57cea3-940a-4369-9b82-b145b29c8de0","productName":"Knight King","providerLogoFileSystemId":"c4da296a-5c22-4c9c-aea9-61cf02de995b","amount":"100000.00","interestRate":"12","duration":"6","categoryUrlSlug":"fixed-deposit-account","applicationStatus":"Savings Pending","applicationNumber":"24/FP-0076/NC/0051","allApplicationId":"9cacafa9-edb2-44d9-90ff-3be155fc3b96","commonPersonalDetailID":"ec692c28-f261-4a1a-a06a-ad1291e48cea","customerIdentityId":null,"concurrencyHash":"FAE8C015F19496173BED52D3B4BF04189B8B2967D9448B9DA03B2C8D025239AF","dataSource":"Common Applications","commonBankAccountDetailSourceId":"0a28dd81-4eba-407b-9851-abe58ef40d8e","commonBankAccountDetailIncomingId":"0a28dd81-4eba-407b-9851-abe58ef40d8e","commonAddressDetailId":"a03c1223-fb3a-472a-ac39-a45291f7b2c1","nextOfKinDetailId":"8b052929-c9e7-4e8b-8e34-de8f3306c123","campaignID":"","productType":"Fixed Deposit"},{"applicationID":"e66af461-c8b8-42d6-ad48-37fd33c363ca","productID":"e6433ad5-c029-4700-ad0f-dfb439489f21","categoryName":"Fixed Deposit Account","customerID":"0b07f5f0-8726-4bb3-b8f7-de96cbe2527a","dateOfApplication":"2024-03-06T00:00:00","dateCreated":"2024-03-06T05:09:05.627","firstName":"Richard","lastName":"Adibe","email":"Donato.Fahey54@gmail.com","phone":"+2348066923517","gender":"male","providerName":"Fast Credit Limited","providerID":"585006ac-57cd-4cfa-8519-780e0b628476","productName":"Investment","providerLogoFileSystemId":"7bda9a50-53bb-448c-ae13-7203e21eba30","amount":"100000.00","interestRate":"1.5","duration":"3","categoryUrlSlug":"fixed-deposit-account","applicationStatus":"Savings Pending","applicationNumber":"24/FP-0038/NC/0018","allApplicationId":"606fac54-3987-4360-bde8-4f4e772229c0","commonPersonalDetailID":"a3b148ee-1724-46f2-b041-e72accec3519","customerIdentityId":null,"concurrencyHash":"FD565BBC07BB9E302B72D2E1564D8993E453AC64AA03550D31AA87B5AD2A34F9","dataSource":"Common Applications","commonBankAccountDetailSourceId":"428afc78-e734-4167-ad96-bd3ed3549106","commonBankAccountDetailIncomingId":"428afc78-e734-4167-ad96-bd3ed3549106","commonAddressDetailId":"e40eebff-35af-4414-b795-b18bf20b24c4","nextOfKinDetailId":"abf13b82-ea92-4ebd-beb9-e3a971145532","campaignID":"","productType":"Fixed Deposit"},{"applicationID":"6d762dd7-e126-40e5-82a3-68d8ac2ba561","productID":"c83fa035-bb29-4ef5-91c6-da2b7a317767","categoryName":"Fixed Deposit Account","customerID":"585ec1ac-376d-4283-9cb7-78965b5313ca","dateOfApplication":"2024-03-05T00:00:00","dateCreated":"2024-03-05T09:29:27.65","firstName":"Richard","lastName":"Adibe","email":"Cordelia12@gmail.com","phone":"+2348066923517","gender":"male","providerName":"KoboGo","providerID":"8c57cea3-940a-4369-9b82-b145b29c8de0","productName":"Knight King","providerLogoFileSystemId":"c4da296a-5c22-4c9c-aea9-61cf02de995b","amount":"677.00","interestRate":"12","duration":"6","categoryUrlSlug":"fixed-deposit-account","applicationStatus":"Savings Pending","applicationNumber":"24/FP-0076/NC/0046","allApplicationId":"70db2e2c-e283-4242-88b7-149f15dbbba0","commonPersonalDetailID":"b4e2a93b-dd3e-48b5-b28c-b2585955c557","customerIdentityId":null,"concurrencyHash":"B61B0DA779C107019459DB355F7652F53016A407BA3C40544D687FE14E4334CC","dataSource":"Common Applications","commonBankAccountDetailSourceId":"8ba8b17a-be06-4dc3-8c04-394a69d2901c","commonBankAccountDetailIncomingId":"8ba8b17a-be06-4dc3-8c04-394a69d2901c","commonAddressDetailId":"a36f7838-e3f1-4fa8-b4a8-f6e15c1898dd","nextOfKinDetailId":"58bb574d-6039-44d1-b971-fae9aeba7ddb","campaignID":"","productType":"Fixed Deposit"},{"applicationID":"ce3418b9-b429-483a-9414-e94f890e7de0","productID":"e6433ad5-c029-4700-ad0f-dfb439489f21","categoryName":"Fixed Deposit Account","customerID":"c77e8998-51ff-4dc7-8944-dfdca03416e5","dateOfApplication":"2024-03-05T00:00:00","dateCreated":"2024-03-05T09:33:13.14","firstName":"Richard","lastName":"Adibe","email":"Fred.Jast97@yahoo.com","phone":"+2348066923517","gender":"male","providerName":"Fast Credit Limited","providerID":"585006ac-57cd-4cfa-8519-780e0b628476","productName":"Investment","providerLogoFileSystemId":"7bda9a50-53bb-448c-ae13-7203e21eba30","amount":"100000.00","interestRate":"1.5","duration":"3","categoryUrlSlug":"fixed-deposit-account","applicationStatus":"Savings Pending","applicationNumber":"24/FP-0038/NC/0019","allApplicationId":"8b67ffff-c662-4a0c-b3e4-30644574a41b","commonPersonalDetailID":"9db97d90-8b2c-40ed-819d-68c942308dc3","customerIdentityId":null,"concurrencyHash":"70E8E45106D6AF9190509CF91AB7FA980A456175102C15D3905B91CB4F29178F","dataSource":"Common Applications","commonBankAccountDetailSourceId":"710108a8-80ed-4947-bb5e-8812d433c8cd","commonBankAccountDetailIncomingId":"710108a8-80ed-4947-bb5e-8812d433c8cd","commonAddressDetailId":"95a8e093-6201-4351-b9d2-eb4e082b2bfd","nextOfKinDetailId":"0f869023-3828-451a-be46-63819ed0ffcd","campaignID":"","productType":"Fixed Deposit"},{"applicationID":"f5f596da-a429-4b7b-8226-42e64ea13590","productID":"c83fa035-bb29-4ef5-91c6-da2b7a317767","categoryName":"Fixed Deposit Account","customerID":"eb892910-c2bc-4ec6-8ccc-dd9c7e691e87","dateOfApplication":"2024-03-05T00:00:00","dateCreated":"2024-03-05T09:29:30.803","firstName":"Richard","lastName":"Adibe","email":"Enos47@gmail.com","phone":"+2348066923517","gender":"male","providerName":"KoboGo","providerID":"8c57cea3-940a-4369-9b82-b145b29c8de0","productName":"Knight King","providerLogoFileSystemId":"c4da296a-5c22-4c9c-aea9-61cf02de995b","amount":"100000.00","interestRate":"12","duration":"6","categoryUrlSlug":"fixed-deposit-account","applicationStatus":"Savings Pending","applicationNumber":"24/FP-0076/NC/0047","allApplicationId":"55975917-6f79-4670-bd61-c226c5f7fc65","commonPersonalDetailID":"08afedd3-0900-4c5d-9700-66156c59c005","customerIdentityId":null,"concurrencyHash":"BA90A9B7019AF57F77C40237701B855EE77D07D911CC76192708BA1569E2BC36","dataSource":"Common Applications","commonBankAccountDetailSourceId":"d19dd6a3-7d02-4ec0-9cf9-59691314adb8","commonBankAccountDetailIncomingId":"d19dd6a3-7d02-4ec0-9cf9-59691314adb8","commonAddressDetailId":"8fd913dc-ca40-4e29-8cf6-53b1edf72a9a","nextOfKinDetailId":"8d69e180-2e74-4838-8f53-caea897e2eb1","campaignID":"","productType":"Fixed Deposit"},{"applicationID":"2d7addde-a914-4fa4-9ac9-3557e6a485c2","productID":"c83fa035-bb29-4ef5-91c6-da2b7a317767","categoryName":"Fixed Deposit Account","customerID":"7de7f176-be8b-4241-8e57-517b7caa3873","dateOfApplication":"2024-03-04T00:00:00","dateCreated":"2024-03-04T08:26:18.17","firstName":"Richard","lastName":"Adibe","email":"Victoria_Kuhlman36@hotmail.com","phone":"+2348066923517","gender":"male","providerName":"KoboGo","providerID":"8c57cea3-940a-4369-9b82-b145b29c8de0","productName":"Knight King","providerLogoFileSystemId":"c4da296a-5c22-4c9c-aea9-61cf02de995b","amount":"24.00","interestRate":"12","duration":"6","categoryUrlSlug":"fixed-deposit-account","applicationStatus":"Savings Pending","applicationNumber":"24/FP-0076/NC/0044","allApplicationId":"7e71b9fe-85c0-4cea-9e2a-bd7225ba2a09","commonPersonalDetailID":"4612d7bc-d3c0-41fd-a1ef-0e79cc780a04","customerIdentityId":null,"concurrencyHash":"DC63ADB1B6D6EE3F733E942A4A125627676122AAE9044178D64FCA1AB196E64F","dataSource":"Common Applications","commonBankAccountDetailSourceId":"16c2c845-0422-4489-8129-9729fabdc3ec","commonBankAccountDetailIncomingId":"16c2c845-0422-4489-8129-9729fabdc3ec","commonAddressDetailId":"2b88c26d-3303-4c3b-8f4f-ec0b906d000e","nextOfKinDetailId":"f5e5225b-4c1f-4939-afb5-29e79feb6f62","campaignID":"","productType":"Fixed Deposit"}]],"details":null},"errors":null,"statusCode":200}