{"isSuccess":true,"message":"Success","data":{"successMessage":"Records retrieved successfully","errorMessage":null,"responseCode":200,"total":805,"totalPages":81,"rowsPerPage":10,"pageItemsCount":10,"pageNumber":1,"queryString":"","list":[[{"applicationID":"1d267502-51c7-4a37-94e6-d6dea5838655","productID":"c83fa035-bb29-4ef5-91c6-da2b7a317767","categoryName":"Fixed Deposit Account","customerID":"0cad364d-a13f-4b92-8109-348de7d33fe3","dateOfApplication":"2024-03-06T00:00:00","dateCreated":"2024-03-06T05:04:47.06","firstName":"Richard","lastName":"Adibe","email":"Katarina76@yahoo.com","phone":"+2348066923517","gender":"male","providerName":"KoboGo","providerID":"8c57cea3-940a-4369-9b82-b145b29c8de0","productName":"Knight King","providerLogoFileSystemId":"c4da296a-5c22-4c9c-aea9-61cf02de995b","amount":"100000.00","interestRate":"12","duration":"6","categoryUrlSlug":"fixed-deposit-account","applicationStatus":"Savings Pending","applicationNumber":"24/FP-0076/NC/0049","allApplicationId":"3766d2ca-e99e-4193-b2af-4baee435ba8a","commonPersonalDetailID":"da9587d4-2cf9-462d-a94b-6c84784a64f7","customerIdentityId":null,"concurrencyHash":"9173D2512F2075C781F79948C1F16F411573C306F873CEC8A3C531CFD9C469D2","dataSource":"Common Applications","commonBankAccountDetailSourceId":"4e5ef4df-b495-4a9a-be97-f0be402fb7e0","commonBankAccountDetailIncomingId":"4e5ef4df-b495-4a9a-be97-f0be402fb7e0","commonAddressDetailId":"63ad6473-c3bd-4dc0-bcb9-9dbc8fb0ed51","nextOfKinDetailId":"7ecc6800-35e8-4d87-8e51-fd1c759cc70e","campaignID":"","productType":"Fixed Deposit"},{"applicationID":"6df02cda-9401-4fcf-9fb1-ba97d26be52c","productID":"c83fa035-bb29-4ef5-91c6-da2b7a317767","categoryName":"Fixed Deposit Account","customerID":"557ff330-06d8-43f6-a74b-e66327771728","dateOfApplication":"2024-03-06T00:00:00","dateCreated":"2024-03-06T05:04:44.483","firstName":"Richard","lastName":"Adibe","email":"Dayton_Barrows25@gmail.com","phone":"+2348066923517","gender":"male","providerName":"KoboGo","providerID":"8c57cea3-940a-4369-9b82-b145b29c8de0","productName":"Knight King","providerLogoFileSystemId":"c4da296a-5c22-4c9c-aea9-61cf02de995b","amount":"803.00","interestRate":"12","duration":"6","categoryUrlSlug":"fixed-deposit-account","applicationStatus":"Savings Pending","applicationNumber":"24/FP-0076/NC/0048","allApplicationId":"0bfc4ba8-6f5b-4049-b08f-a8db13d8eaee","commonPersonalDetailID":"191eae79-809b-4f0e-b134-e1fb891590f9","customerIdentityId":null,"concurrencyHash":"C0C276718B4F3EB167EAA6465B8135F41817D705073A6D431568E832B890459D","dataSource":"Common Applications","commonBankAccountDetailSourceId":"8b7ce502-d4b2-45e4-a88f-0830ab3a9c54","commonBankAccountDetailIncomingId":"8b7ce502-d4b2-45e4-a88f-0830ab3a9c54","commonAddressDetailId":"3802fc44-9e88-4d61-9f63-1cc512ade332","nextOfKinDetailId":"5b62c426-2e83-47e6-bf8e-0a044a32d002","campaignID":"","productType":"Fixed Deposit"},{"applicationID":"e66af461-c8b8-42d6-ad48-37fd33c363ca","productID":"e6433ad5-c029-4700-ad0f-dfb439489f21","categoryName":"Fixed Deposit Account","customerID":"0b07f5f0-8726-4bb3-b8f7-de96cbe2527a","dateOfApplication":"2024-03-06T00:00:00","dateCreated":"2024-03-06T05:09:05.627","firstName":"Richard","lastName":"Adibe","email":"Donato.Fahey54@gmail.com","phone":"+2348066923517","gender":"male","providerName":"Fast Credit Limited","providerID":"585006ac-57cd-4cfa-8519-780e0b628476","productName":"Investment","providerLogoFileSystemId":"7bda9a50-53bb-448c-ae13-7203e21eba30","amount":"100000.00","interestRate":"1.5","duration":"3","categoryUrlSlug":"fixed-deposit-account","applicationStatus":"Savings Pending","applicationNumber":"24/FP-0038/NC/0018","allApplicationId":"606fac54-3987-4360-bde8-4f4e772229c0","commonPersonalDetailID":"a3b148ee-1724-46f2-b041-e72accec3519","customerIdentityId":null,"concurrencyHash":"FD565BBC07BB9E302B72D2E1564D8993E453AC64AA03550D31AA87B5AD2A34F9","dataSource":"Common Applications","commonBankAccountDetailSourceId":"428afc78-e734-4167-ad96-bd3ed3549106","commonBankAccountDetailIncomingId":"428afc78-e734-4167-ad96-bd3ed3549106","commonAddressDetailId":"e40eebff-35af-4414-b795-b18bf20b24c4","nextOfKinDetailId":"abf13b82-ea92-4ebd-beb9-e3a971145532","campaignID":"","productType":"Fixed Deposit"},{"applicationID":"6d762dd7-e126-40e5-82a3-68d8ac2ba561","productID":"c83fa035-bb29-4ef5-91c6-da2b7a317767","categoryName":"Fixed Deposit Account","customerID":"585ec1ac-376d-4283-9cb7-78965b5313ca","dateOfApplication":"2024-03-05T00:00:00","dateCreated":"2024-03-05T09:29:27.65","firstName":"Richard","lastName":"Adibe","email":"Cordelia12@gmail.com","phone":"+2348066923517","gender":"male","providerName":"KoboGo","providerID":"8c57cea3-940a-4369-9b82-b145b29c8de0","productName":"Knight King","providerLogoFileSystemId":"c4da296a-5c22-4c9c-aea9-61cf02de995b","amount":"677.00","interestRate":"12","duration":"6","categoryUrlSlug":"fixed-deposit-account","applicationStatus":"Savings Pending","applicationNumber":"24/FP-0076/NC/0046","allApplicationId":"70db2e2c-e283-4242-88b7-149f15dbbba0","commonPersonalDetailID":"b4e2a93b-dd3e-48b5-b28c-b2585955c557","customerIdentityId":null,"concurrencyHash":"B61B0DA779C107019459DB355F7652F53016A407BA3C40544D687FE14E4334CC","dataSource":"Common Applications","commonBankAccountDetailSourceId":"8ba8b17a-be06-4dc3-8c04-394a69d2901c","commonBankAccountDetailIncomingId":"8ba8b17a-be06-4dc3-8c04-394a69d2901c","commonAddressDetailId":"a36f7838-e3f1-4fa8-b4a8-f6e15c1898dd","nextOfKinDetailId":"58bb574d-6039-44d1-b971-fae9aeba7ddb","campaignID":"","productType":"Fixed Deposit"},{"applicationID":"ce3418b9-b429-483a-9414-e94f890e7de0","productID":"e6433ad5-c029-4700-ad0f-dfb439489f21","categoryName":"Fixed Deposit Account","customerID":"c77e8998-51ff-4dc7-8944-dfdca03416e5","dateOfApplication":"2024-03-05T00:00:00","dateCreated":"2024-03-05T09:33:13.14","firstName":"Richard","lastName":"Adibe","email":"Fred.Jast97@yahoo.com","phone":"+2348066923517","gender":"male","providerName":"Fast Credit Limited","providerID":"585006ac-57cd-4cfa-8519-780e0b628476","productName":"Investment","providerLogoFileSystemId":"7bda9a50-53bb-448c-ae13-7203e21eba30","amount":"100000.00","interestRate":"1.5","duration":"3","categoryUrlSlug":"fixed-deposit-account","applicationStatus":"Savings Pending","applicationNumber":"24/FP-0038/NC/0019","allApplicationId":"8b67ffff-c662-4a0c-b3e4-30644574a41b","commonPersonalDetailID":"9db97d90-8b2c-40ed-819d-68c942308dc3","customerIdentityId":null,"concurrencyHash":"70E8E45106D6AF9190509CF91AB7FA980A456175102C15D3905B91CB4F29178F","dataSource":"Common Applications","commonBankAccountDetailSourceId":"710108a8-80ed-4947-bb5e-8812d433c8cd","commonBankAccountDetailIncomingId":"710108a8-80ed-4947-bb5e-8812d433c8cd","commonAddressDetailId":"95a8e093-6201-4351-b9d2-eb4e082b2bfd","nextOfKinDetailId":"0f869023-3828-451a-be46-63819ed0ffcd","campaignID":"","productType":"Fixed Deposit"},{"applicationID":"f5f596da-a429-4b7b-8226-42e64ea13590","productID":"c83fa035-bb29-4ef5-91c6-da2b7a317767","categoryName":"Fixed Deposit Account","customerID":"eb892910-c2bc-4ec6-8ccc-dd9c7e691e87","dateOfApplication":"2024-03-05T00:00:00","dateCreated":"2024-03-05T09:29:30.803","firstName":"Richard","lastName":"Adibe","email":"Enos47@gmail.com","phone":"+2348066923517","gender":"male","providerName":"KoboGo","providerID":"8c57cea3-940a-4369-9b82-b145b29c8de0","productName":"Knight King","providerLogoFileSystemId":"c4da296a-5c22-4c9c-aea9-61cf02de995b","amount":"100000.00","interestRate":"12","duration":"6","categoryUrlSlug":"fixed-deposit-account","applicationStatus":"Savings Pending","applicationNumber":"24/FP-0076/NC/0047","allApplicationId":"55975917-6f79-4670-bd61-c226c5f7fc65","commonPersonalDetailID":"08afedd3-0900-4c5d-9700-66156c59c005","customerIdentityId":null,"concurrencyHash":"BA90A9B7019AF57F77C40237701B855EE77D07D911CC76192708BA1569E2BC36","dataSource":"Common Applications","commonBankAccountDetailSourceId":"d19dd6a3-7d02-4ec0-9cf9-59691314adb8","commonBankAccountDetailIncomingId":"d19dd6a3-7d02-4ec0-9cf9-59691314adb8","commonAddressDetailId":"8fd913dc-ca40-4e29-8cf6-53b1edf72a9a","nextOfKinDetailId":"8d69e180-2e74-4838-8f53-caea897e2eb1","campaignID":"","productType":"Fixed Deposit"},{"applicationID":"2d7addde-a914-4fa4-9ac9-3557e6a485c2","productID":"c83fa035-bb29-4ef5-91c6-da2b7a317767","categoryName":"Fixed Deposit Account","customerID":"7de7f176-be8b-4241-8e57-517b7caa3873","dateOfApplication":"2024-03-04T00:00:00","dateCreated":"2024-03-04T08:26:18.17","firstName":"Richard","lastName":"Adibe","email":"Victoria_Kuhlman36@hotmail.com","phone":"+2348066923517","gender":"male","providerName":"KoboGo","providerID":"8c57cea3-940a-4369-9b82-b145b29c8de0","productName":"Knight King","providerLogoFileSystemId":"c4da296a-5c22-4c9c-aea9-61cf02de995b","amount":"24.00","interestRate":"12","duration":"6","categoryUrlSlug":"fixed-deposit-account","applicationStatus":"Savings Pending","applicationNumber":"24/FP-0076/NC/0044","allApplicationId":"7e71b9fe-85c0-4cea-9e2a-bd7225ba2a09","commonPersonalDetailID":"4612d7bc-d3c0-41fd-a1ef-0e79cc780a04","customerIdentityId":null,"concurrencyHash":"DC63ADB1B6D6EE3F733E942A4A125627676122AAE9044178D64FCA1AB196E64F","dataSource":"Common Applications","commonBankAccountDetailSourceId":"16c2c845-0422-4489-8129-9729fabdc3ec","commonBankAccountDetailIncomingId":"16c2c845-0422-4489-8129-9729fabdc3ec","commonAddressDetailId":"2b88c26d-3303-4c3b-8f4f-ec0b906d000e","nextOfKinDetailId":"f5e5225b-4c1f-4939-afb5-29e79feb6f62","campaignID":"","productType":"Fixed Deposit"},{"applicationID":"4b176d54-8da7-4a1f-8771-fd1e88c53bf5","productID":"c83fa035-bb29-4ef5-91c6-da2b7a317767","categoryName":"Fixed Deposit Account","customerID":"9da8132f-b2a5-4205-b9ec-e812cf5233c0","dateOfApplication":"2024-03-04T00:00:00","dateCreated":"2024-03-04T08:26:20.887","firstName":"Richard","lastName":"Adibe","email":"Aliyah72@hotmail.com","phone":"+2348066923517","gender":"male","providerName":"KoboGo","providerID":"8c57cea3-940a-4369-9b82-b145b29c8de0","productName":"Knight King","providerLogoFileSystemId":"c4da296a-5c22-4c9c-aea9-61cf02de995b","amount":"100000.00","interestRate":"12","duration":"6","categoryUrlSlug":"fixed-deposit-account","applicationStatus":"Savings Pending","applicationNumber":"24/FP-0076/NC/0045","allApplicationId":"b60baf81-ba26-4ea6-bc8b-88ffdb5eb358","commonPersonalDetailID":"a722a1c7-e6ed-4e6a-a7f7-9dfedb162830","customerIdentityId":null,"concurrencyHash":"27DDF159A33055DB3ED078D0F4AC8C6624AE2EC3DD81C2609FE3F1285CBA403D","dataSource":"Common Applications","commonBankAccountDetailSourceId":"d97077eb-423d-40c6-9d36-a3e070aaaa08","commonBankAccountDetailIncomingId":"d97077eb-423d-40c6-9d36-a3e070aaaa08","commonAddressDetailId":"7d365a53-585f-4c5f-b597-b397b30034bd","nextOfKinDetailId":"439966d3-75bb-44f9-be4e-8f445c893478","campaignID":"","productType":"Fixed Deposit"},{"applicationID":"7c7110d2-f186-44f9-9255-2c536490bdfe","productID":"e6433ad5-c029-4700-ad0f-dfb439489f21","categoryName":"Fixed Deposit Account","customerID":"b167dfa9-5ef4-4280-a999-cd18948ce0db","dateOfApplication":"2024-03-04T00:00:00","dateCreated":"2024-03-04T08:29:42.307","firstName":"Richard","lastName":"Adibe","email":"Rosario_Kulas@yahoo.com","phone":"+2348066923517","gender":"male","providerName":"Fast Credit Limited","providerID":"585006ac-57cd-4cfa-8519-780e0b628476","productName":"Investment","providerLogoFileSystemId":"7bda9a50-53bb-448c-ae13-7203e21eba30","amount":"100000.00","interestRate":"1.5","duration":"3","categoryUrlSlug":"fixed-deposit-account","applicationStatus":"Savings Pending","applicationNumber":"24/FP-0038/NC/0018","allApplicationId":"2d4c7da6-5f55-4716-bdd2-10879ceaeb71","commonPersonalDetailID":"7a9eb1ec-6311-4a4c-91f5-5c0886ae304f","customerIdentityId":null,"concurrencyHash":"C432D61CA863037EA845808DA57CF86F477FB7D3526182AD7DE4FFDC28FBD662","dataSource":"Common Applications","commonBankAccountDetailSourceId":"6c317301-cd31-47c2-83d7-7cdec5fad6b2","commonBankAccountDetailIncomingId":"6c317301-cd31-47c2-83d7-7cdec5fad6b2","commonAddressDetailId":"3b6572be-8cda-4115-ac01-ecd502f7ed4f","nextOfKinDetailId":"5bca70f3-2b70-432f-b788-7f73a2537bfd","campaignID":"","productType":"Fixed Deposit"},{"applicationID":"0d0b765e-3bb6-4e93-aeb7-f27070f6ac1c","productID":"e6433ad5-c029-4700-ad0f-dfb439489f21","categoryName":"Fixed Deposit Account","customerID":"4c12ef08-9b93-440c-9fa8-f705eb3ca57d","dateOfApplication":"2024-03-01T00:00:00","dateCreated":"2024-03-01T18:09:44.96","firstName":"Richard","lastName":"Adibe","email":"Sister.Deckow71@gmail.com","phone":"+2348066923517","gender":"male","providerName":"Fast Credit Limited","providerID":"585006ac-57cd-4cfa-8519-780e0b628476","productName":"Investment","providerLogoFileSystemId":"7bda9a50-53bb-448c-ae13-7203e21eba30","amount":"100000.00","interestRate":"1.5","duration":"3","categoryUrlSlug":"fixed-deposit-account","applicationStatus":"Savings Pending","applicationNumber":"24/FP-0038/NC/0020","allApplicationId":"00b2d25b-97cf-457f-9f50-41c3e34dbbf3","commonPersonalDetailID":"fb8d3350-0fb6-4880-8713-acc2231237cf","customerIdentityId":null,"concurrencyHash":"5D8572AD6D030978DAEC8D830AF3AF3B6A59AC41BA18059BCCD4BCCF122E892E","dataSource":"Common Applications","commonBankAccountDetailSourceId":"a4bf2472-0fbc-4b2c-8eee-3af7dfa16a7e","commonBankAccountDetailIncomingId":"a4bf2472-0fbc-4b2c-8eee-3af7dfa16a7e","commonAddressDetailId":"84c5d8fe-bf9e-47c8-8062-d8ffc8bf3d52","nextOfKinDetailId":"0610fba3-a846-40c0-8617-5243bbf1f788","campaignID":"","productType":"Fixed Deposit"}]],"details":null},"errors":null,"statusCode":200}